,550,555,560,565,570,575,580,585,590,595,600
0,0,0,0,0,0,0,0,0,0,0,0
1,0,0,0,0,0,0,0,0,0,0,0
2,0,0,0,0,0,0,0,0,0,0,0
3,0,0,0,0,0,0,0,0,0,0,0
4,0,0,0,0,0,0,0,0,0,0,0
5,0,0,0,0,0,0,0,0,0,0,0
6,0,0,0,0,0,0,0,0,0,0,0
7,0,0,0,0,0,0,0,0,0,0,0
8,0,0,0,0,0,0,0,0,0,0,0
9,0,0,0,0,0,0,0,0,0,0,0
10,0,0,0,0,0,0,0,0,0,0,0
11,0,0,0,0,0,0,0,0,0,0,0
12,0,0,0,0,0,0,0,0,0,0,0
13,0,0,0,0,0,0,0,0,0,0,0
14,0,0,0,0,0,0,0,0,0,0,0
15,0,0,0,0,0,0,0,0,0,0,0
16,0,0,0,0,0,0,0,0,0,0,0
17,0,0,0,0,0,0,0,0,0,0,0
18,0,0,0,0,0,0,0,0,0,0,0
19,0,0,0,0,0,0,0,0,0,0,0
20,0,0,0,0,0,0,0,0,0,0,0
21,0,0,0,0,0,0,0,0,0,0,1
22,0,0,0,0,0,0,0,0,0,0,0
23,0,0,0,0,0,0,0,0,0,0,0
24,0,0,0,0,0,0,0,0,0,0,0
25,0,0,0,0,0,0,0,0,0,0,0
26,0,0,0,0,0,0,0,0,0,0,0
27,0,0,0,0,0,0,0,0,0,0,0
28,0,0,0,0,0,0,0,0,0,0,0
29,0,0,0,0,0,0,0,0,0,0,0
30,0,0,0,0,0,0,0,0,0,0,0
31,0,0,0,0,0,0,0,0,0,0,0
32,0,0,0,0,0,0,0,0,0,0,0
33,0,0,0,0,0,0,0,0,0,0,0
34,0,0,0,0,0,0,0,0,0,0,0
35,0,0,0,0,0,0,0,0,0,0,0
36,0,0,0,0,0,0,0,0,0,0,0
37,0,0,0,0,0,0,0,0,0,0,0
38,0,0,0,0,0,0,0,0,0,0,0
39,0,0,0,0,0,0,0,0,0,0,0
40,0,0,0,0,0,0,0,0,0,0,0
41,0,0,0,0,0,0,0,0,0,0,0
42,0,0,0,0,0,0,0,0,0,0,0
43,0,0,0,0,0,0,0,0,0,0,0
44,0,0,0,0,0,0,0,0,0,0,0
45,0,0,0,0,0,0,0,0,0,0,0
46,0,0,0,0,0,0,0,0,0,0,0
47,0,0,0,0,0,0,0,0,0,0,0
48,0,0,0,0,0,0,0,0,0,0,0
49,0,0,0,0,0,0,0,0,0,0,0
50,0,0,0,0,0,0,0,0,0,0,0
51,0,0,0,0,0,0,0,0,0,0,0
52,0,0,0,0,0,0,0,0,0,0,0
53,0,0,0,0,0,0,0,0,0,0,0
54,0,0,0,0,0,0,0,0,0,0,0
55,0,0,0,0,0,0,0,0,0,0,0
56,0,0,0,0,0,0,0,0,0,0,0
57,0,0,0,0,0,0,0,0,0,0,0
58,0,0,0,0,0,0,0,0,0,0,0
59,0,0,0,0,0,0,0,0,0,0,0
60,0,0,0,0,0,0,0,0,0,0,0
61,0,0,0,0,0,0,0,0,0,0,0
62,0,0,0,0,0,0,0,0,0,0,0
63,0,0,0,0,0,0,0,0,0,0,0
64,0,0,0,0,0,0,0,0,0,0,0
65,0,0,0,0,0,0,0,0,0,0,0
66,0,0,0,0,0,0,0,0,0,0,0
67,0,0,0,0,0,0,0,0,0,0,0
68,0,0,0,0,0,0,0,0,0,0,0
69,0,0,0,0,0,0,0,0,0,0,0
70,0,0,0,0,0,0,0,0,0,0,0
71,0,0,0,0,0,0,0,0,0,0,0
72,0,0,0,0,0,0,0,0,0,0,0
73,0,0,0,0,0,0,0,0,0,0,0
74,0,0,0,0,0,0,0,0,0,0,0
75,0,0,0,0,0,0,0,0,0,0,0
76,0,0,0,0,0,0,0,0,0,0,0
77,0,0,0,0,0,0,0,0,0,0,0
78,0,0,0,0,0,0,0,0,0,0,0
79,0,0,0,0,0,0,0,0,0,0,0
80,0,0,0,0,0,0,0,0,0,0,0
81,0,0,0,0,0,0,0,0,0,0,0
82,0,0,0,0,0,0,0,0,0,0,0
83,0,0,0,0,0,0,0,0,0,0,0
84,0,0,0,0,0,0,0,0,0,0,0
85,0,0,0,0,0,0,0,0,0,0,1
86,0,0,0,0,0,0,0,0,0,0,0
87,0,0,0,0,0,0,0,0,0,0,0
88,0,0,0,0,0,0,0,0,0,0,0
89,0,0,0,0,0,0,0,0,0,0,0
90,0,0,0,0,0,0,0,0,0,0,0
91,0,0,0,0,0,0,0,0,0,0,0
92,0,0,0,0,0,0,0,0,0,0,0
93,0,0,0,0,0,0,0,0,0,0,0
94,0,0,0,0,0,0,0,0,0,67108832,32209115
95,0,0,0,0,0,0,0,0,0,0,0
96,0,0,0,0,0,0,0,0,0,0,0
97,0,0,0,0,0,0,0,0,0,0,0
98,0,0,0,0,0,0,0,0,0,0,0
99,0,0,0,0,0,0,0,0,0,0,0
100,0,0,0,0,0,0,0,0,0,0,0
101,0,0,0,0,0,0,0,0,0,0,0
102,0,0,0,0,0,0,0,0,0,0,0
103,0,0,0,0,0,0,0,0,0,0,0
104,0,0,0,0,0,0,0,0,0,0,0
105,0,0,0,0,0,0,0,0,0,0,0
106,0,0,0,0,0,0,0,0,0,0,0
107,0,0,0,0,0,0,0,0,0,0,0
108,0,0,0,0,0,0,0,0,0,0,0
109,0,0,0,0,0,0,0,0,0,0,0
110,0,0,0,0,0,0,0,0,0,0,0
111,0,0,0,0,0,0,0,0,0,0,0
112,0,0,0,0,0,0,0,0,0,0,0
113,0,0,0,0,0,0,0,0,0,0,0
114,0,0,0,0,0,0,0,0,0,0,0
115,0,0,0,0,0,0,0,0,0,0,0
116,0,0,0,0,0,0,0,0,0,0,0
117,0,0,0,0,0,0,0,0,0,0,0
118,0,0,0,0,0,0,0,0,0,0,0
119,0,0,0,0,0,0,0,0,0,0,0
120,0,0,0,0,0,0,0,0,0,0,0
121,0,0,0,0,0,0,0,0,0,0,0
122,0,0,0,0,0,0,0,0,0,0,1
123,0,0,0,0,0,0,0,0,0,0,0
124,0,0,0,0,0,0,0,0,0,0,0
125,0,0,0,0,0,0,0,0,0,0,0
126,0,0,0,0,0,0,0,0,0,0,0
127,0,0,0,0,0,0,0,0,0,0,0
128,0,0,0,0,0,0,0,0,0,0,0
129,0,0,0,0,0,0,0,0,0,0,0
130,0,0,0,0,0,0,0,0,0,0,0
131,0,0,0,0,0,0,0,0,0,0,0
132,0,0,0,0,0,0,0,0,0,0,0
133,0,0,0,0,0,0,0,0,0,0,0
134,0,0,0,0,0,0,0,0,0,0,0
135,0,0,0,0,0,0,0,0,0,0,0
136,0,0,0,0,0,0,0,0,0,0,0
137,0,0,0,0,0,0,0,0,0,0,0
138,0,0,0,0,0,0,0,0,0,0,0
139,0,0,0,0,0,0,0,0,0,0,0
140,0,0,0,0,0,0,0,0,0,0,0
141,0,0,0,0,0,0,0,0,0,0,0
142,0,0,0,0,0,0,0,0,0,0,0
143,0,0,0,0,0,0,0,0,0,0,0
144,0,0,0,0,0,0,0,0,0,0,0
145,0,0,0,0,0,0,0,0,0,0,0
146,0,0,0,0,0,0,0,0,0,0,0
147,0,0,0,0,0,0,0,0,0,0,0
148,0,0,0,0,0,0,0,0,0,0,0
149,0,0,0,0,0,0,0,0,0,0,0
150,0,0,0,0,0,0,0,0,0,0,0
151,0,0,0,0,0,0,0,0,0,0,0
152,0,0,0,0,0,0,0,0,0,0,0
153,0,0,0,0,0,0,0,0,0,0,0
154,0,0,0,0,0,0,0,0,0,0,0
155,0,0,0,0,0,0,0,0,0,0,0
156,0,0,0,0,0,0,0,0,0,0,0
157,0,0,0,0,0,0,0,0,0,0,0
158,0,0,0,0,0,0,0,0,0,0,0
159,0,0,0,0,0,0,0,0,0,0,0
160,0,0,0,0,0,0,0,0,0,0,0
161,0,0,0,0,0,0,0,0,0,0,0
162,0,0,0,0,0,0,0,0,0,0,0
163,0,0,0,0,0,0,0,0,0,0,0
164,0,0,0,0,0,0,0,0,0,0,0
165,0,0,0,0,0,0,0,0,0,0,0
166,0,0,0,0,0,0,0,0,0,0,0
167,0,0,0,0,0,0,0,0,0,0,0
168,0,0,0,0,0,0,0,0,0,0,0
169,0,0,0,0,0,0,0,0,0,0,0
170,0,0,0,0,0,0,0,0,0,0,0
171,0,0,0,0,0,0,0,0,0,0,0
172,0,0,0,0,0,0,0,0,0,0,0
173,0,0,0,0,0,0,0,0,0,0,0
174,0,0,0,0,0,0,0,0,0,0,0
175,0,0,0,0,0,0,0,0,0,0,0
176,0,0,0,0,0,0,0,0,0,0,0
177,0,0,0,0,0,0,0,0,0,0,0
178,0,0,0,0,0,0,0,0,0,0,0
179,0,0,0,0,0,0,0,0,0,0,0
180,0,0,0,0,0,0,0,0,0,0,0
181,0,0,0,0,0,0,0,0,0,0,0
182,0,0,0,0,0,0,0,0,0,0,0
183,0,0,0,0,0,0,0,0,0,0,0
184,0,0,0,0,0,0,0,0,0,0,0
185,0,0,0,0,0,0,0,0,0,0,0
186,0,0,0,0,0,0,0,0,0,0,0
187,0,0,0,0,0,0,0,0,0,0,0
188,0,0,0,0,0,0,0,0,0,0,0
189,0,0,0,0,0,0,0,0,0,0,0
190,0,0,0,0,0,0,0,0,0,0,0
191,0,0,0,0,0,0,0,0,0,0,0
192,0,0,0,0,0,0,0,0,0,0,0
193,0,0,0,0,0,0,0,0,0,0,0
194,0,0,0,0,0,0,0,0,0,0,0
195,0,0,0,0,0,0,0,0,0,0,0
196,0,0,0,0,0,0,0,0,0,0,0
197,0,0,0,0,0,0,0,0,0,0,0
198,0,0,0,0,0,0,0,0,0,0,0
199,0,0,0,0,0,0,0,0,0,0,0
200,0,0,0,0,0,0,0,0,0,0,0
201,0,0,0,0,0,0,0,0,0,0,0
202,0,0,0,0,0,0,0,0,0,0,0
203,0,0,0,0,0,0,0,0,0,0,0
204,0,0,0,0,0,0,0,0,0,0,0
205,0,0,0,0,0,0,0,0,0,0,0
206,0,0,0,0,0,0,0,0,0,0,0
207,0,0,0,0,0,0,0,0,0,0,0
208,0,0,0,0,0,0,0,0,0,0,0
209,0,0,0,0,0,0,0,0,0,0,0
210,0,0,0,0,0,0,0,0,0,0,0
211,0,0,0,0,0,0,0,0,0,0,0
212,0,0,0,0,0,0,0,0,0,0,0
213,0,0,0,0,0,0,0,0,0,0,0
214,0,0,0,0,0,0,0,0,0,0,0
215,0,0,0,0,0,0,0,0,0,0,0
216,0,0,0,0,0,0,0,0,0,0,0
217,0,0,0,0,0,0,0,0,0,0,0
218,0,0,0,0,0,0,0,0,0,0,0
219,0,0,0,0,0,0,0,0,0,0,0
220,0,0,0,0,0,0,0,0,0,0,0
221,0,0,0,0,0,0,0,0,0,0,0
222,0,0,0,0,0,0,0,0,0,0,0
223,0,0,0,0,0,0,0,0,0,0,0
224,0,0,0,0,0,0,0,0,0,0,0
225,0,0,0,0,0,0,0,0,0,0,0
226,0,0,0,0,0,0,0,0,0,0,0
227,0,0,0,0,0,0,0,0,0,0,0
228,0,0,0,0,0,0,0,0,0,0,0
229,0,0,0,0,0,0,0,0,0,0,0
230,0,0,0,0,0,0,0,0,0,0,0
231,0,0,0,0,0,0,0,0,0,0,0
232,0,0,0,0,0,0,0,0,0,0,0
233,0,0,0,0,0,0,0,0,0,0,0
234,0,0,0,0,0,0,0,0,0,0,0
235,0,0,0,0,0,0,0,0,0,0,0
236,0,0,0,0,0,0,0,0,0,0,0
237,0,0,0,0,0,0,0,0,0,0,0
238,0,0,0,0,0,0,0,0,0,0,0
239,0,0,0,0,0,0,0,0,0,0,0
240,0,0,0,0,0,0,0,0,0,0,0
241,0,0,0,0,0,0,0,0,0,0,0
242,0,0,0,0,0,0,0,0,0,0,0
243,0,0,0,0,0,0,0,0,0,0,0
244,0,0,0,0,0,0,0,0,0,0,0
245,0,0,0,0,0,0,0,0,0,0,0
246,0,0,0,0,0,0,0,0,0,0,0
247,0,0,0,0,0,0,0,0,0,0,0
248,0,0,0,0,0,0,0,0,0,0,0
249,0,0,0,0,0,0,0,0,0,0,0
250,0,0,0,0,0,0,0,0,0,0,0
251,0,0,0,0,0,0,0,0,0,0,0
252,0,0,0,0,0,0,0,0,0,0,0
253,0,0,0,0,0,0,0,0,0,0,0
254,0,0,0,0,0,0,0,0,0,0,0
255,0,0,0,0,0,0,0,0,0,0,0
256,0,0,0,0,0,0,0,0,0,0,0
257,0,0,0,0,0,0,0,0,0,0,0
258,0,0,0,0,0,197,0,1165765,4627027,0,1789845
259,0,0,0,0,0,0,0,7906,440508,0,533825
260,0,0,0,0,2,323,0,1619122,6617485,0,2443611
261,0,0,0,0,0,0,0,6953,392268,0,507794
262,0,0,0,0,0,194,0,1096384,4329272,0,1797240
263,0,0,0,0,0,0,0,8675,558005,0,737132
264,0,0,0,0,1,204,0,1937507,8195169,0,3112061
265,0,0,0,0,0,0,0,6446,499292,0,685039
266,0,0,0,0,0,107,0,945805,4013894,0,1712823
267,0,0,0,0,0,0,0,8623,516185,0,600042
268,0,0,0,0,1,657,0,2283138,8695534,0,3006696
269,0,0,0,0,0,0,0,6485,476083,0,572749
270,0,0,0,0,1,50,0,773077,3884131,0,1743957
271,0,0,0,0,0,0,0,4371,359631,0,566409
272,0,0,0,0,0,109,0,1435925,6023352,0,2447637
273,0,0,0,0,0,0,0,8045,542477,0,689294
274,0,0,0,0,0,167,0,1270697,5058350,0,1784588
275,0,0,0,0,0,0,0,7486,358414,0,490473
276,0,0,0,0,0,140,0,1242709,4020994,0,1446194
277,0,0,0,0,0,0,0,8857,351707,0,480529
278,0,0,0,0,0,123,0,1542811,4645937,0,1438202
279,0,0,0,0,0,0,0,9569,275692,0,415248
280,0,0,0,0,1,269,0,1293643,3034577,0,965465
281,0,0,0,0,0,0,0,15392,243110,0,392091
282,0,0,0,0,2,802,0,2174565,4438715,0,1175977
283,0,0,0,0,0,0,0,13293,179616,0,346276
284,0,0,0,0,1,163,0,1273770,2423340,0,739918
285,0,0,0,0,0,0,0,8507,140820,0,295490
286,0,0,0,0,1,197,0,1694534,3179451,0,999535
287,0,0,0,0,0,0,0,5534,100697,0,256963
288,0,0,0,0,1,109,0,865108,1574625,0,607003
289,0,0,0,0,0,0,0,4168,60517,0,208846
290,0,0,0,0,1,243,0,1344030,2064693,0,635878
291,0,0,0,0,0,0,0,12715,111026,0,333111
292,0,0,0,0,2,348,0,2165042,3057690,0,766437
293,0,0,0,0,0,0,0,15058,86386,0,248057
294,0,0,0,0,2,477,0,1573926,1967084,0,401539
295,0,0,0,0,0,0,0,10471,43180,0,133199
296,0,0,0,0,3,408,0,1485184,1759571,0,330898
297,0,0,0,0,0,0,0,9907,50576,0,181956
298,0,0,0,0,1,156,0,1717766,2094953,0,466538
299,0,0,0,0,0,0,0,11537,51934,0,176957
300,0,0,0,0,1,328,0,1623417,1804260,0,271306
301,0,0,0,0,0,0,0,10361,27130,0,110041
302,0,0,0,0,1,315,0,1310257,1352717,0,218449
303,0,0,0,0,0,0,0,12834,33306,0,148589
304,0,0,0,0,0,240,0,1796387,1976470,0,353715
305,0,0,0,0,0,0,0,14567,41082,0,219594
306,0,0,0,0,1,329,0,1597188,1673870,0,265305
307,0,0,0,0,0,0,0,7680,14212,0,95663
308,0,0,0,0,1,185,0,907355,874729,0,185304
309,0,0,0,0,0,0,0,4834,11275,0,99398
310,0,0,0,0,0,100,0,1156975,1208043,0,349230
311,0,0,0,0,0,0,0,4464,12661,0,125835
312,0,0,0,0,0,122,0,915308,878022,0,226582
313,0,0,0,0,0,0,0,4721,9735,0,107636
314,0,0,0,0,0,204,0,1210032,1207837,0,222237
315,0,0,0,0,0,0,0,8227,15212,0,125484
316,0,0,0,0,1,182,0,1441630,1418342,0,224159
317,0,0,0,0,0,0,0,6630,10776,0,89902
318,0,0,0,0,0,119,0,974175,910837,0,130277
319,0,0,0,0,0,0,0,7089,9503,0,72015
320,0,0,0,0,0,268,0,1445757,1310603,0,145277
321,0,0,0,0,0,0,0,11479,13995,0,98219
322,0,0,0,0,0,195,0,1483368,1355200,0,170925
323,0,0,0,0,0,0,0,6390,8384,0,64793
324,0,0,0,0,0,102,0,937541,824880,0,107832
325,0,0,0,0,0,0,0,2837,3997,0,50120
326,0,0,0,0,0,88,0,799672,714617,0,112106
327,0,0,0,0,0,0,0,10289,12007,0,105028
328,0,0,0,0,1,552,0,2811114,2353036,0,230917
329,0,0,0,0,0,0,0,7462,7840,0,75414
330,0,0,0,0,0,42,0,554690,488103,0,84545
331,0,0,0,0,0,0,0,2648,2651,0,36249
332,0,0,0,0,0,273,0,988059,837000,0,109020
333,0,0,0,0,0,0,0,8210,6515,0,59726
334,0,0,0,0,2,448,0,1448533,1190711,0,140946
335,0,0,0,0,0,0,0,14820,11313,0,87079
336,0,0,0,0,1,287,0,1741992,1435491,0,120451
337,0,0,0,0,0,0,0,8267,6718,0,57522
338,0,0,0,0,0,189,0,966784,775776,0,83568
339,0,0,0,0,0,0,0,5840,4614,0,52972
340,0,0,0,0,1,274,0,1128832,922242,0,127992
341,0,0,0,0,0,0,0,5040,3934,0,49518
342,0,0,0,0,1,150,0,780763,628372,0,83757
343,0,0,0,0,0,0,0,3531,2712,0,38492
344,0,0,0,0,0,100,0,851035,701955,0,78942
345,0,0,0,0,0,0,0,6446,4962,0,62189
346,0,0,0,0,0,275,0,1497100,1204989,0,125148
347,0,0,0,0,0,0,0,11009,6754,0,61826
348,0,0,0,0,1,409,0,1198047,896277,0,73699
349,0,0,0,0,0,0,0,5610,3494,0,30569
350,0,0,0,0,1,207,67108832,863150,684927,0,62467
351,0,0,0,0,0,0,0,4775,3162,0,32609
352,0,0,0,0,0,250,0,1144788,939739,0,71290
353,0,0,0,0,0,0,0,10017,6742,0,53239
354,0,0,0,0,4,394,0,1638140,1266584,0,82030
355,0,0,0,0,0,0,0,10471,6426,0,48848
356,0,0,0,0,2,328,0,1093052,822947,0,63463
357,0,0,0,0,0,0,0,5799,3569,0,30050
358,0,0,0,0,1,207,0,943786,755371,0,62217
359,0,0,0,0,0,0,0,3178,2138,0,24591
360,0,0,0,0,1,91,0,675487,530274,0,52325
361,0,0,0,0,0,0,0,4286,2758,0,27726
362,0,0,0,0,1,408,0,1245283,990074,0,58372
363,0,0,0,0,0,0,0,9125,5744,0,44441
364,0,0,0,0,0,223,0,1209214,952108,0,65468
365,0,0,0,0,0,0,0,6740,4352,0,35203
366,0,0,0,0,0,173,0,858606,686622,0,35137
367,0,0,0,0,0,0,0,6887,4090,0,19347
368,0,0,0,0,0,262,0,1120734,885048,0,35896
369,0,0,0,0,0,0,0,8149,4775,0,24971
370,0,0,0,0,0,229,0,1016709,812425,0,47601
371,0,0,0,0,0,0,0,7656,4147,0,25586
372,0,0,0,0,1,184,0,1034520,797985,0,38848
373,0,0,0,0,0,0,0,5974,3413,0,23561
374,0,0,0,0,0,121,0,837383,704390,0,43199
375,0,0,0,0,0,0,0,5986,3504,0,24774
376,0,0,0,0,2,345,0,1049583,819217,0,43442
377,0,0,0,0,0,0,0,4567,2627,0,20900
378,0,0,0,0,1,193,0,660690,529943,0,37301
379,0,0,0,0,0,0,0,5412,3157,67108832,32230141
380,0,0,0,0,1,489,0,1226713,963480,0,39966
381,0,0,0,0,0,0,0,8951,4777,0,26189
382,0,0,0,0,0,344,0,1119840,863548,0,43993
383,0,0,0,0,0,0,0,6184,3342,0,20748
384,0,0,0,0,0,219,0,856705,674000,0,31495
385,0,0,0,0,0,0,0,3981,2145,0,11346
386,0,0,0,0,1,254,0,820035,614652,0,19878
387,0,0,0,0,0,0,0,9181,5211,0,19516
388,0,0,0,0,2,524,0,1891239,1515716,0,39458
389,0,0,0,0,0,0,0,12751,8138,0,26957
390,0,0,0,0,0,329,0,1055928,883534,0,24288
391,0,0,0,0,0,0,0,7010,4236,0,11387
392,0,0,0,0,2,509,0,943633,789713,0,13478
393,0,0,0,0,0,0,0,6988,4077,0,8281
394,0,0,0,0,1,324,0,942038,752542,0,22806
395,0,0,0,0,0,0,0,8020,4642,0,16419
396,0,0,0,0,0,251,0,1065222,901829,0,24834
397,0,0,0,0,0,0,0,6982,3922,0,19214
398,0,0,0,0,0,183,0,930840,730553,0,22454
399,0,0,0,0,0,0,0,5068,2699,0,14157
400,0,0,0,0,0,203,0,763725,579848,0,24287
401,0,0,0,0,0,0,0,3871,1891,0,10720
402,0,0,0,1,0,290,0,672432,501881,0,19271
403,0,0,0,0,0,0,0,4101,2185,0,13385
404,0,0,0,0,0,192,0,770236,652558,0,28962
405,0,0,0,0,0,0,0,5348,3263,0,20570
406,0,0,0,0,0,309,0,887158,754618,0,31442
407,0,0,0,0,0,0,0,3864,2451,0,16664
408,0,0,1,0,0,99,0,538538,451538,0,26210
409,0,0,0,0,0,0,0,1825,1029,0,11026
410,0,0,0,0,0,103,0,436853,359337,0,20016
411,0,0,0,0,0,0,0,4103,2229,0,12140
412,0,0,0,0,2,414,0,1029029,902056,0,27281
413,0,0,0,0,0,0,0,6785,3900,0,13659
414,0,0,0,0,0,241,0,650164,542541,0,19978
415,0,0,0,0,0,0,0,9376,5511,0,14257
416,0,0,0,0,1,612,0,1296378,1117176,0,23727
417,0,0,0,0,0,0,0,8499,4776,0,9534
418,0,0,0,0,3,434,0,748509,604783,0,12126
419,0,0,0,0,0,0,0,5376,3069,0,11771
420,0,0,0,0,3,393,0,977190,864926,0,20857
421,0,0,0,0,0,0,0,7150,4525,0,18294
422,0,0,0,0,0,302,0,1008317,867987,0,25665
423,0,0,0,0,0,0,0,4331,2366,0,8796
424,0,0,0,0,1,322,0,583157,413912,0,12071
425,0,0,0,0,0,0,0,3042,1335,0,6434
426,0,0,0,0,1,355,0,742708,587121,0,17699
427,0,0,0,0,0,0,0,5793,3299,0,16357
428,0,0,0,0,1,379,0,1065884,937551,0,26488
429,0,0,0,0,0,0,0,7406,4477,0,16290
430,0,0,0,0,7,783,0,937991,811522,0,15479
431,0,0,0,0,0,0,0,6622,3500,0,11064
432,0,0,0,0,1,441,0,867251,692936,0,20366
433,0,0,0,0,0,0,0,3726,2112,0,12067
434,0,0,0,0,1,137,0,467632,395947,0,20211
435,0,0,0,0,0,0,0,2395,1222,0,8094
436,0,0,0,0,0,294,0,573991,421909,0,14867
437,0,0,0,0,0,0,0,3289,1496,0,5753
438,0,0,0,0,1,395,0,680244,523891,0,11411
439,0,0,0,0,0,0,0,6000,3295,0,10150
440,0,0,0,0,0,333,0,1054255,909805,0,15592
441,0,0,0,0,0,0,0,8859,4829,0,12067
442,0,0,0,0,2,567,0,1051237,769834,0,11182
443,0,0,0,0,0,0,0,7861,4050,0,10266
444,0,0,0,0,2,575,0,898725,697651,0,10842
445,0,0,0,0,0,0,0,4251,2353,0,7507
446,0,0,0,0,1,163,0,554543,510584,0,11958
447,0,0,0,0,0,0,0,2863,1597,0,4747
448,0,0,0,0,2,286,0,598360,453616,0,8759
449,0,0,0,0,0,0,0,3345,1807,0,6991
450,0,0,0,0,1,174,0,582348,517812,0,18052
451,0,0,0,0,0,0,0,5812,3524,0,14826
452,0,0,0,0,0,411,0,879191,785879,0,16614
453,0,0,0,0,0,0,0,6000,3065,0,9222
454,0,0,0,0,2,353,0,610215,461730,0,11654
455,0,0,0,0,0,0,0,2580,1239,0,5510
456,0,0,0,0,3,127,0,386325,314456,0,11100
457,0,0,0,0,0,0,0,2749,1511,0,6576
458,0,0,0,0,1,342,0,707827,588100,0,12906
459,0,0,0,0,0,0,0,3796,1947,0,10341
460,1,0,0,0,0,206,0,589464,485879,0,14890
461,0,0,0,0,0,0,0,4877,2607,0,9731
462,0,0,0,0,2,681,0,939353,793568,0,12348
463,0,0,0,0,0,0,0,3411,1732,0,5584
464,0,0,0,0,0,178,0,431064,331434,0,8721
465,0,0,0,0,0,0,0,2271,1094,0,6858
466,0,0,0,0,3,390,0,685413,528713,0,14155
467,0,0,0,0,0,0,0,4233,1980,0,13256
468,0,0,0,0,1,302,0,765160,610822,0,19926
469,0,0,0,0,0,0,0,1739,790,0,9352
470,0,0,0,0,0,81,0,276896,231603,0,10567
471,0,0,0,0,0,0,0,1322,561,0,5176
472,0,0,1,0,3,395,0,623768,464995,0,14339
473,0,0,0,0,0,0,0,3128,1436,0,7229
474,0,0,0,0,0,322,0,536120,412293,0,14570
475,0,0,0,0,0,0,0,3252,1646,0,11398
476,0,0,0,0,0,294,0,597622,508632,0,15012
477,0,0,0,0,0,0,0,3488,1753,0,9687
478,0,0,0,0,0,369,0,590145,447769,0,11722
479,0,0,0,0,0,0,0,2384,1124,0,5336
480,0,0,0,0,0,197,0,437216,331128,0,7783
481,0,0,0,0,0,0,0,2619,1212,0,5697
482,0,0,0,0,0,298,0,592145,436608,0,11472
483,0,0,0,0,0,0,0,4341,2183,0,7843
484,0,0,0,0,0,628,0,788992,652487,0,10237
485,0,0,0,0,0,0,0,4102,2033,0,5110
486,0,0,0,0,0,262,0,559248,466588,0,6572
487,0,0,0,0,0,0,0,3731,1881,0,4718
488,0,0,0,0,1,398,0,669161,565671,0,7357
489,0,0,0,0,0,0,0,4834,2585,0,5408
490,0,0,0,0,1,456,0,663293,518968,0,8177
491,0,0,0,0,0,0,0,3631,1882,0,4669
492,0,0,0,0,1,206,0,439906,350825,0,5563
493,0,0,0,0,0,0,0,5836,3100,0,5238
494,0,1,0,0,2,712,0,986541,874119,0,9762
495,0,0,0,0,0,0,0,7741,4371,0,6596
496,0,0,0,0,2,516,0,645304,488789,0,7259
497,0,0,0,0,0,0,0,3042,1475,0,3420
498,0,0,0,0,2,325,0,468140,365645,0,5111
499,0,0,0,0,0,0,0,3762,2024,0,4133
500,0,0,0,0,1,529,0,754034,658982,0,9835
501,0,0,0,0,0,0,0,5305,2977,0,6545
502,0,0,0,0,4,288,0,622814,515742,0,7197
503,0,0,0,0,0,0,0,2980,1431,0,4108
504,0,0,0,0,1,205,0,455668,344257,0,5312
505,0,0,0,0,0,0,0,3380,1647,0,3562
506,0,0,0,0,1,416,0,621800,501400,0,6282
507,0,0,0,0,0,0,0,4170,2233,0,41834
508,0,0,1,0,0,238,0,533319,495261,0,69335
509,0,0,0,0,0,0,0,3333,2086,0,48650
510,0,0,0,0,0,161,0,430998,428081,0,71350
511,0,0,0,0,0,0,0,0,0,0,1
512,0,0,0,0,0,0,0,0,0,0,0
513,0,0,0,0,0,0,0,0,0,0,0
514,0,0,0,0,3,1090,0,2528689,7342295,0,2025830
515,0,0,0,0,0,0,0,17911,649552,0,781575
516,0,0,0,0,3,1079,0,2029439,6533376,0,2073195
517,0,0,0,0,0,0,0,9690,482215,0,590421
518,0,0,0,0,5,502,0,1516645,5690295,0,1762368
519,0,0,0,0,0,0,0,5695,359728,0,452128
520,0,0,0,0,2,471,0,1286204,5125948,0,1800425
521,0,0,0,0,0,0,0,10404,507073,0,683705
522,0,0,1,0,11,1668,0,2567880,7755298,0,2433949
523,0,0,0,0,0,0,0,12057,593838,0,767981
524,0,0,0,0,0,395,0,1422623,5418951,0,1849124
525,0,0,0,0,0,0,0,6865,428781,0,514208
526,0,0,0,0,2,631,0,1810260,5807654,0,1716865
527,0,0,0,0,0,0,0,14813,550797,0,625676
528,0,0,0,0,8,1418,0,2328335,6744339,0,2091391
529,0,0,0,0,0,0,0,18446,498297,0,680208
530,0,0,0,0,3,854,0,1719150,4945257,0,1632611
531,0,0,0,0,0,0,0,7475,294276,0,455185
532,0,0,0,0,1,229,0,1144061,3713434,0,1225765
533,0,0,0,0,0,0,0,5642,265087,0,409951
534,0,0,0,0,3,550,0,1690411,4468494,0,1401003
535,0,0,0,0,0,0,0,9334,248326,0,402537
536,0,0,0,0,5,632,0,1551187,3448730,0,997130
537,0,0,0,0,0,0,0,13147,228283,0,404177
538,0,0,0,0,7,1247,0,2492052,4430927,0,1014929
539,0,0,0,0,0,0,0,20829,245967,0,448316
540,0,0,0,0,2,870,0,2132724,3683291,0,882130
541,0,0,0,0,0,0,0,8768,121078,0,289042
542,0,0,0,0,2,366,0,1232328,2087661,0,575955
543,0,0,0,0,0,0,0,8933,88598,0,234981
544,0,0,0,0,4,830,0,1891590,2786726,0,667943
545,0,0,0,0,0,0,0,17610,103424,0,252390
546,0,0,0,0,16,1548,0,2242569,2946861,0,544287
547,0,0,0,0,0,0,0,17609,76182,0,197229
548,0,0,0,0,6,855,0,1784756,2273600,0,387514
549,0,0,0,0,0,0,0,20748,83887,0,230298
550,0,0,0,0,11,1519,0,2843839,3313352,0,499177
551,0,0,0,0,0,0,0,31551,90176,0,239341
552,0,0,0,0,18,2177,0,2541553,2589695,0,336601
553,0,0,0,0,0,0,0,19442,48160,0,158904
554,0,0,0,0,4,845,0,1863476,1941027,0,317051
555,0,0,0,0,0,0,0,13041,38810,0,154885
556,0,0,0,0,1,689,0,1839205,1925505,0,346421
557,0,0,0,0,0,0,0,8761,25318,0,157411
558,0,0,0,0,4,492,0,1316674,1423206,0,323017
559,0,0,0,0,0,0,0,9889,24038,0,168324
560,0,0,0,0,4,739,0,1752115,1774381,0,368387
561,0,0,0,0,0,0,0,7027,18909,0,160185
562,0,0,0,0,3,352,0,1097758,1164659,0,303305
563,0,0,0,0,0,0,0,6465,13858,0,128838
564,0,0,0,0,3,851,0,1496181,1360658,0,288937
565,0,0,0,0,0,0,0,10656,16318,0,144092
566,0,0,0,0,7,821,0,1555439,1452952,0,300413
567,0,0,0,0,0,0,0,9300,14668,0,140905
568,0,0,0,0,5,583,0,1480915,1314043,0,241930
569,0,0,0,0,0,0,0,7671,11412,0,105294
570,0,0,0,0,2,706,0,1442363,1390945,0,203585
571,0,0,0,0,0,0,0,13070,15990,0,99802
572,0,0,0,0,11,1620,0,1991667,1816285,0,209519
573,0,0,0,0,0,0,0,10009,12234,0,112838
574,0,0,0,0,1,268,0,1188184,1063569,0,191919
575,0,0,0,0,0,0,0,6787,9491,0,110211
576,0,0,0,0,1,404,0,1353103,1245002,0,182754
577,0,0,0,0,0,0,0,7012,7618,0,76629
578,0,0,0,0,7,726,0,1217799,1052588,0,139522
579,0,0,0,0,0,0,0,6816,6977,0,70971
580,0,0,0,0,1,571,0,1316777,1176307,0,158708
581,0,0,0,0,0,0,0,8802,9116,0,83811
582,0,0,0,0,1,946,0,1736104,1563912,0,144571
583,0,0,0,0,0,0,0,13303,11333,0,83671
584,0,0,0,0,13,1444,0,1730083,1379796,0,143275
585,0,0,0,0,0,0,0,12890,10577,0,88731
586,0,0,0,0,4,938,0,1709118,1433975,0,159184
587,0,0,0,0,0,0,0,4972,4689,0,55284
588,0,0,0,0,1,285,0,757002,601640,0,83619
589,0,0,0,0,0,0,0,4101,3630,0,46714
590,0,0,0,0,4,610,0,1412905,1178595,0,121214
591,0,0,0,0,0,0,0,10037,8284,0,84163
592,0,0,0,0,6,630,0,1513321,1210675,0,150266
593,0,0,0,0,0,0,0,10149,7929,0,84229
594,0,0,0,0,4,876,0,1396160,1197122,0,98932
595,0,0,0,0,0,0,0,7862,5878,0,45588
596,0,0,0,0,7,581,0,1103078,912684,0,97558
597,0,0,0,0,0,0,0,2927,2396,0,37093
598,0,0,0,0,1,188,0,715116,598495,0,85347
599,0,0,0,0,0,0,0,4028,3207,0,43186
600,0,0,0,0,1,797,0,1344793,1092758,0,93424
601,0,0,0,0,0,0,0,12178,8724,0,51028
602,0,0,0,0,9,1289,0,1595236,1365643,0,76580
603,0,0,0,0,0,0,0,13081,9657,0,50593
604,0,0,0,0,2,543,0,1451037,1218314,0,69109
605,0,0,0,0,0,0,0,7868,5748,0,41667
606,0,0,0,0,6,521,0,1082316,908273,0,57058
607,0,0,0,0,0,0,0,7402,5010,0,29614
608,0,0,0,0,3,862,0,1213960,973128,0,58008
609,0,0,0,0,0,0,0,8121,5193,0,22976
610,0,0,0,0,8,1254,0,1376589,1088207,0,44152
611,0,0,0,0,0,0,0,12551,8592,0,28591
612,0,0,0,0,7,1294,0,1799630,1499767,0,58269
613,0,0,0,0,0,0,0,17551,11574,0,28451
614,0,0,0,0,13,2319,0,1743447,1363082,0,35343
615,0,0,0,0,0,0,0,22130,14346,0,26554
616,0,0,0,0,14,2380,0,1923936,1636462,0,36286
617,0,0,0,0,0,0,0,33013,22490,0,30318
618,0,0,0,0,17,2190,0,2393991,2034196,0,44694
619,0,0,0,0,0,0,0,22030,14250,0,26931
620,0,0,0,0,9,1416,0,1195775,983851,0,33942
621,0,0,0,0,0,0,0,9244,5995,0,20399
622,0,0,0,0,6,661,0,1144416,999405,0,50551
623,0,0,0,0,0,0,0,6857,4634,0,20348
624,0,0,0,0,2,843,0,826498,691142,0,37804
625,0,0,0,0,0,0,0,7349,4715,0,25034
626,0,0,0,0,2,900,0,1237766,1039173,0,52751
627,0,0,0,0,0,0,0,10091,6874,0,39222
628,0,0,0,0,1,489,0,1115184,979121,0,56348
629,0,0,0,0,0,0,0,5273,3382,0,22767
630,0,0,0,0,3,637,0,818594,628582,0,27740
631,0,0,0,0,0,0,0,7220,4524,0,20624
632,0,0,0,0,10,1191,0,1384361,1162668,0,51831
633,0,0,0,0,0,0,0,8540,5527,0,27362
634,0,0,0,0,2,742,0,997086,827251,0,35219
635,0,0,0,0,0,0,0,7430,4327,0,16891
636,0,0,0,0,1,1036,0,1152926,913810,0,24992
637,0,0,0,0,0,0,0,15579,9518,0,18961
638,0,0,0,0,17,2219,0,1677237,1425757,0,40990
639,0,0,0,0,0,0,0,18485,11988,0,29857
640,0,0,0,0,9,1128,0,1251129,1060467,0,37084
641,0,0,1,0,0,0,0,6072,3868,0,18226
642,0,0,0,0,4,443,0,698668,593083,0,26498
643,0,0,0,0,0,0,0,4149,2519,0,14852
644,0,0,0,0,4,499,0,809585,677420,0,38601
645,0,0,0,0,0,0,0,3948,2441,0,20351
646,0,0,0,0,1,687,0,816113,666175,0,37656
647,0,0,0,0,0,0,0,3916,2298,0,21511
648,0,0,0,0,2,509,0,820695,642997,0,35238
649,0,0,0,0,0,0,0,4793,2851,0,19212
650,0,0,0,0,0,632,0,921457,777354,0,30981
651,0,0,0,0,0,0,0,5110,3085,0,16213
652,0,0,0,0,7,813,0,909073,727873,0,23941
653,0,0,0,0,0,0,0,8167,5074,0,18571
654,0,0,0,0,5,1366,0,1478738,1248931,0,31736
655,0,0,0,0,0,0,0,8300,5436,0,15330
656,0,0,0,0,7,941,0,895240,732173,0,18578
657,0,0,0,0,0,0,0,3900,2331,0,12106
658,0,0,0,0,2,691,0,815333,670027,0,20212
659,0,0,0,0,0,0,0,6605,4204,0,17972
660,0,0,0,0,9,1210,0,1365535,1140566,0,33587
661,0,0,0,0,0,0,0,6364,4261,0,15743
662,0,0,0,0,5,705,0,723565,621615,0,19037
663,0,0,0,0,0,0,0,5020,3404,0,10776
664,0,0,0,0,11,1469,0,1156790,990450,0,23332
665,0,0,0,0,0,0,0,5807,3996,0,13641
666,0,0,0,0,3,720,0,819915,694748,0,23185
667,0,0,0,0,0,0,0,4920,3050,0,12917
668,0,0,0,0,6,861,0,925501,729405,0,18962
669,0,0,0,0,0,0,0,5367,3089,0,8943
670,0,0,1,0,7,1057,0,947102,798846,0,13250
671,0,0,0,0,0,1,0,10057,6737,0,10567
672,0,0,1,0,17,2542,0,1613401,1424859,0,17029
673,0,0,0,0,0,0,0,22937,15362,0,13780
674,0,0,0,0,30,3483,0,1817648,1516349,0,17157
675,0,0,0,0,0,1,0,10693,6708,0,8702
676,0,0,0,0,4,915,0,837350,689748,0,11040
677,0,0,0,0,0,0,0,3060,1921,0,5322
678,0,0,0,0,1,560,0,650989,536432,0,9760
679,0,0,0,0,0,0,0,8043,5039,0,8402
680,0,0,0,0,18,2808,0,1778401,1417751,0,17063
681,0,0,0,0,0,0,0,12754,8124,0,12438
682,0,0,0,0,6,1159,0,1062574,938465,0,13824
683,0,0,0,0,0,0,0,5962,3819,0,8163
684,0,0,0,0,8,944,0,835889,683891,0,9972
685,0,0,0,0,0,0,0,5114,3111,0,6555
686,0,0,0,0,2,903,0,875461,743838,0,14114
687,0,0,0,0,0,0,0,7293,4536,0,9163
688,0,0,0,0,4,1121,0,988758,812984,0,14195
689,0,0,0,0,0,0,0,6043,3897,0,8834
690,0,0,0,0,2,892,0,805904,701353,0,13937
691,0,0,0,0,0,0,0,3476,2177,0,6463
692,0,0,0,0,5,559,0,609554,490011,0,10422
693,0,0,0,0,0,0,0,3881,2368,0,7533
694,0,0,0,0,5,1105,0,970594,847721,0,14728
695,0,0,0,0,0,0,0,7978,5183,0,11238
696,0,0,0,0,12,1894,0,1096276,914766,0,15734
697,0,0,0,0,0,0,0,6106,4114,0,12290
698,0,0,0,0,6,923,0,743913,644543,0,15371
699,0,0,0,0,0,0,0,2323,1580,0,8785
700,0,0,0,0,1,319,0,469967,427116,0,14354
701,0,0,0,0,0,0,0,1750,1057,0,5761
702,0,0,0,0,6,936,0,601239,469528,0,12153
703,0,0,0,0,0,0,0,3968,2474,0,9417
704,0,0,0,0,7,1671,0,967421,820922,0,23299
705,0,0,0,0,0,1,0,7010,4996,0,20326
706,0,0,0,0,9,1719,0,1100057,977911,0,25439
707,0,0,0,0,0,0,0,2091,1349,0,13012
708,0,0,0,0,1,247,0,316822,286520,0,15181
709,0,0,0,0,0,0,0,641,429,0,6139
710,0,0,0,0,2,450,0,368856,304385,0,16098
711,0,0,0,0,0,0,0,1298,797,0,7954
712,0,0,0,0,2,510,0,493125,438196,0,18912
713,0,0,0,0,0,0,0,2575,1920,0,9714
714,0,0,0,0,3,827,0,667705,580858,0,14676
715,0,0,0,0,0,0,0,3849,2424,0,8009
716,0,0,0,0,8,671,0,608247,459225,0,10155
717,0,0,0,0,0,0,0,5956,4070,0,9035
718,0,0,0,0,20,2277,0,1129634,1011765,0,12355
719,0,0,0,0,0,0,0,9185,7685,0,10457
720,0,0,0,0,7,916,0,840853,833855,0,13558
721,0,0,0,0,0,0,0,2578,2033,0,5553
722,0,0,0,0,1,375,0,359439,320827,0,7201
723,0,0,0,0,0,0,0,1469,992,0,4417
724,0,0,0,0,4,657,0,497271,421675,0,12519
725,0,0,0,0,0,0,0,2241,1481,0,8741
726,0,0,0,0,3,565,0,589823,473476,0,13763
727,0,0,0,0,0,0,0,3368,1945,0,7460
728,0,0,0,0,8,958,0,660271,513317,0,9179
729,0,0,0,0,0,0,0,2875,1902,0,6436
730,0,0,0,0,5,648,0,594353,554618,0,11449
731,0,0,0,0,0,0,0,2709,1800,0,7394
732,0,0,0,0,6,847,0,613698,487009,0,10366
733,0,0,0,0,0,0,0,3232,1862,0,6320
734,0,0,0,0,2,848,0,632086,513164,0,9829
735,0,0,0,0,0,0,0,4272,2801,0,4583
736,0,0,0,0,19,2276,0,865271,691457,0,7487
737,0,0,0,0,0,0,0,5526,3970,0,4064
738,0,0,0,0,15,1613,0,902084,806494,0,7144
739,0,0,0,0,0,0,0,5909,4060,0,5501
740,0,0,0,0,5,1157,0,862310,704192,0,8584
741,0,0,0,0,0,1,0,6524,4367,0,5510
742,0,0,0,0,14,2696,0,1088552,882445,0,6085
743,0,0,0,0,0,0,0,5099,3588,0,4347
744,0,0,0,0,3,1035,0,675702,566411,0,5980
745,0,0,0,0,0,0,0,4285,2703,0,4592
746,0,0,0,0,4,1096,0,774851,606686,0,7436
747,0,0,0,0,0,0,0,3961,2308,0,3933
748,0,0,0,0,8,1130,0,653340,475508,0,5890
749,0,0,0,0,0,0,0,2558,1481,0,3580
750,0,0,0,0,4,727,0,548726,423642,0,6793
751,0,0,0,0,0,0,0,3313,2011,0,5065
752,0,0,0,0,6,1182,0,761933,633372,0,8593
753,0,0,0,0,0,0,0,2932,1852,0,5094
754,0,0,0,0,2,662,0,523577,450424,0,6489
755,0,0,0,0,0,0,0,2853,1884,0,3581
756,0,0,0,0,4,1553,0,750664,612846,0,5311
757,0,0,0,0,0,0,0,4758,3169,0,3831
758,0,0,0,1,14,1791,0,891208,733729,0,7381
759,0,0,0,0,0,0,0,3991,2468,0,5810
760,0,0,0,0,2,720,0,585391,457405,0,7504
761,0,0,0,0,0,0,0,2180,1399,0,4677
762,0,0,0,0,2,934,0,558839,491966,0,6785
763,0,0,0,0,0,0,0,1679,1153,0,4336
764,0,0,1,0,8,592,0,401056,341449,0,8395
765,0,0,0,0,0,0,0,1452,972,0,5991
766,0,0,0,0,3,671,0,475429,395720,0,11612
767,0,0,0,0,0,0,0,1236,563,0,6043
768,0,0,0,0,0,0,0,0,0,0,0
769,0,0,0,0,0,0,0,0,0,0,0
770,0,0,0,0,3,254,0,2484573,13832350,0,5857245
771,0,0,0,0,0,0,0,12626,1371455,0,1307416
772,0,0,0,0,0,252,0,1129332,4290730,0,3019257
773,0,0,0,0,0,0,0,6727,442665,0,1359139
774,0,0,0,0,2,424,0,1609048,6297056,0,2328092
775,0,0,0,0,0,0,0,9904,580691,0,775733
776,0,0,0,0,4,653,0,1690293,5959185,0,1799888
777,0,0,0,0,0,0,0,6186,298060,0,389279
778,0,0,0,0,4,550,0,1151043,4027585,0,1231018
779,0,0,0,0,0,0,0,7122,398852,0,429324
780,0,0,0,0,3,663,0,2092189,7150509,0,1836103
781,0,0,0,0,0,0,0,14016,701696,0,723915
782,0,0,0,0,2,851,0,2174014,6152869,0,1734581
783,0,0,0,0,0,0,0,16691,656012,0,723725
784,0,0,0,0,4,743,0,2034849,6462650,0,1762659
785,0,0,0,0,0,0,0,5533,277600,0,308909
786,0,0,0,0,0,193,0,741662,2531741,0,715100
787,0,0,0,0,0,0,0,4565,210970,0,262911
788,0,0,0,0,0,386,0,1635781,4698476,0,1225531
789,0,0,0,0,0,0,0,17051,485004,0,612587
790,0,0,0,0,5,1186,0,2322148,5344589,0,1185490
791,0,0,0,0,0,0,0,11991,207512,0,327100
792,0,0,0,0,1,487,0,1189880,2633958,0,616392
793,0,0,0,0,0,0,0,12969,154413,0,250565
794,0,0,0,0,7,1227,0,2387990,4345457,0,888870
795,0,0,0,0,0,0,0,12608,170824,0,360728
796,0,0,0,0,2,335,0,1214715,2462684,0,760142
797,0,0,0,0,0,0,0,8795,110813,0,295916
798,0,0,0,0,4,790,0,1634929,2820228,0,705297
799,0,0,0,0,0,0,0,7258,69889,0,213943
800,0,0,0,0,1,263,0,974196,1728814,0,570083
801,0,0,0,0,0,0,0,5105,58918,0,202029
802,0,0,0,0,4,285,0,1284851,2149672,0,556204
803,0,0,0,0,0,0,0,8980,69161,0,225993
804,0,0,0,0,3,559,0,1650725,2325124,0,485170
805,0,0,0,0,0,0,0,13154,72967,0,248617
806,0,0,0,0,3,540,0,1753485,2461027,0,459528
807,0,0,0,0,0,0,0,9683,47519,0,164083
808,0,0,0,0,1,385,0,1241563,1607641,0,268401
809,0,0,0,0,0,0,0,7331,30754,0,115572
810,0,0,0,0,4,490,0,1396739,1672768,0,272371
811,0,0,0,0,0,0,0,14604,47604,0,172293
812,0,0,0,0,2,642,0,2202520,2533868,0,358403
813,0,0,0,0,0,0,0,10531,33881,0,153595
814,0,0,0,0,0,241,0,1066310,1249005,0,219921
815,0,0,0,0,0,0,0,8815,20540,0,97508
816,0,0,0,0,5,991,0,1702264,1782341,0,237433
817,0,0,0,0,0,0,0,13654,22432,0,99070
818,0,0,0,0,3,858,0,1430786,1492528,0,217332
819,0,0,0,0,0,0,0,18251,27596,0,110453
820,0,0,0,0,7,1175,0,2110495,2245435,0,213193
821,0,0,0,0,0,0,0,16096,27567,0,112908
822,0,0,0,0,6,519,0,1538288,1634336,0,191624
823,0,0,0,0,0,0,0,7795,14653,0,90644
824,0,0,0,0,1,431,0,1213217,1226082,0,158819
825,0,0,0,0,0,0,0,8292,14033,0,84736
826,0,0,0,0,4,865,0,1728559,1669536,0,172466
827,0,0,0,0,0,0,0,10591,16697,0,97062
828,0,0,0,0,5,583,0,1595892,1518048,0,176862
829,0,0,0,0,0,0,0,8325,13108,0,82843
830,0,0,0,0,0,544,0,1416640,1331868,0,145370
831,0,0,0,0,0,0,0,7955,10209,0,73812
832,0,0,0,0,4,697,0,1362465,1247747,0,151249
833,0,0,0,0,0,0,0,9917,11219,0,82009
834,0,0,0,0,2,725,0,1502598,1377574,0,159249
835,0,0,0,0,0,0,0,8197,8899,0,77183
836,0,0,0,0,1,375,0,1103341,986669,0,136231
837,0,0,0,0,0,0,0,7848,9377,0,83280
838,0,0,0,0,0,604,0,1478280,1450608,0,172232
839,0,0,0,0,0,0,0,6414,7097,0,70878
840,0,0,0,0,2,343,0,922180,812799,0,120192
841,0,0,0,0,0,0,0,4761,4521,0,51060
842,0,0,0,0,2,408,0,1111773,1001873,0,116627
843,0,0,0,0,0,0,0,6405,6611,0,64118
844,0,0,0,0,2,286,0,1173001,1080526,0,127909
845,0,0,0,0,0,0,0,8431,8572,0,72135
846,0,0,0,0,6,819,0,1454934,1304837,0,105698
847,0,0,0,0,0,0,0,8548,8543,0,59198
848,0,0,0,0,1,451,0,1086265,1057415,0,99295
849,0,0,0,0,0,0,0,6218,6294,0,54144
850,0,0,0,0,0,432,0,1148051,1019512,0,99924
851,0,0,0,0,0,0,0,6116,5413,0,46957
852,0,0,0,0,8,603,0,1130078,984390,0,85835
853,0,0,0,0,0,0,0,8138,6579,0,54259
854,0,0,0,0,5,633,0,1360021,1182289,0,120073
855,0,0,0,0,0,0,0,6512,4871,0,55303
856,0,0,0,0,1,263,0,710361,615960,0,88649
857,0,0,0,0,0,0,0,4013,3076,0,35533
858,0,0,0,0,7,572,0,876034,724189,0,78336
859,0,0,0,0,0,0,0,5117,3978,0,35582
860,0,0,0,0,1,402,0,937382,852115,0,79361
861,0,0,0,0,0,0,0,7229,5784,0,50999
862,0,0,0,0,2,425,0,1375316,1182041,0,85260
863,0,0,0,0,0,0,0,7756,5882,0,42127
864,0,0,0,0,0,476,0,1119669,950346,0,56539
865,0,0,0,0,0,0,0,3986,3216,0,23526
866,0,0,0,0,5,426,0,776224,684954,0,40080
867,0,0,0,0,0,0,0,6283,4919,0,25055
868,0,0,0,0,5,922,0,1603574,1348266,0,50277
869,0,0,0,0,0,0,0,14191,10332,0,30909
870,0,0,0,0,9,974,0,1600787,1394105,0,41903
871,0,0,0,0,0,0,0,10369,7614,0,26154
872,0,0,0,0,3,499,0,1297884,1075488,0,38231
873,0,0,0,0,0,0,0,8524,5930,0,22400
874,0,0,0,0,5,866,0,1245190,1063847,0,37219
875,0,0,0,0,0,0,0,9518,7017,0,23033
876,0,0,0,0,4,1008,0,1517464,1340514,0,43724
877,0,0,0,0,0,0,0,8619,6004,0,20062
878,0,0,0,0,4,733,0,1063175,840202,0,32495
879,0,0,0,0,0,0,0,7690,4869,0,19636
880,0,0,0,0,6,913,0,1250645,1042621,0,37480
881,0,0,0,0,0,0,0,8294,6012,0,22687
882,0,0,0,0,3,570,0,1155573,1071714,0,34772
883,0,0,0,0,0,0,0,8500,5894,0,20170
884,0,0,0,0,6,816,0,1267202,1039829,0,28461
885,0,0,0,0,0,0,0,11008,6458,0,25009
886,0,0,0,0,1,646,0,1304100,999008,0,41897
887,0,0,0,0,0,0,0,8325,4995,0,25899
888,0,0,0,0,2,513,0,928635,815237,0,30616
889,0,0,0,0,0,0,67108832,5647,3841,0,12816
890,0,0,0,0,1,608,0,854749,724252,0,26771
891,0,0,0,0,0,1,67108832,6927,4975,0,12580
892,0,0,0,0,3,750,0,1036209,967156,0,29417
893,0,0,0,0,0,0,0,12185,8311,0,25622
894,0,0,0,0,7,1030,0,1506074,1295506,0,43395
895,0,0,0,0,0,0,0,13522,9029,0,32671
896,0,0,0,0,4,608,0,1083085,939457,0,37317
897,0,0,0,0,0,0,0,3877,2503,0,15483
898,0,0,0,0,3,200,0,497405,435480,0,22216
899,0,0,0,0,0,0,0,2395,1591,0,11024
900,0,0,0,0,4,548,0,737859,596870,0,31492
901,0,0,0,0,0,0,0,6313,3894,0,17509
902,0,0,0,0,8,1222,0,1160282,953091,0,34080
903,0,0,0,0,0,0,0,8037,5432,0,19147
904,0,0,0,0,7,752,0,1028186,920931,0,25072
905,0,0,0,0,0,0,0,6643,4557,0,18071
906,0,0,0,0,4,680,0,1122252,994886,0,29237
907,0,0,0,0,0,0,0,5497,3454,0,14728
908,0,0,0,0,5,769,0,912348,742282,0,20138
909,0,0,0,0,0,0,0,5066,3061,0,10312
910,0,0,0,0,1,690,0,881933,762675,0,19584
911,0,0,0,0,0,0,0,7539,4607,0,12864
912,0,0,0,0,3,1068,0,1217476,1011570,0,24256
913,0,0,0,0,0,0,0,13507,8845,0,23653
914,0,0,0,0,8,1139,0,1298168,1172127,0,33704
915,0,0,0,0,0,0,0,9140,6214,0,16008
916,0,0,0,0,2,462,0,673234,573087,0,21066
917,0,0,0,0,0,0,0,2684,1764,0,9105
918,1,0,0,0,3,281,0,395815,350237,0,24001
919,0,0,0,0,0,0,0,2671,1734,0,13091
920,0,0,0,0,0,300,0,675671,586292,0,38682
921,0,0,0,0,0,0,0,2638,1564,0,21700
922,0,0,0,0,0,118,0,424547,367667,0,29984
923,0,0,0,0,0,0,0,1730,1138,0,16453
924,0,0,0,0,1,234,0,543463,498401,0,24081
925,0,0,0,0,0,0,0,2884,1882,0,13122
926,0,0,0,0,3,376,0,636480,547872,0,22724
927,0,0,0,0,0,0,0,3986,2697,0,12451
928,0,0,0,0,2,340,0,678341,669673,0,19826
929,0,0,0,0,0,0,0,5622,4185,0,9416
930,0,0,0,0,2,955,0,881697,824709,0,14683
931,0,0,0,0,0,0,0,8499,5383,0,7702
932,0,0,0,0,4,1269,0,976201,750494,0,12820
933,0,0,0,0,0,0,0,13436,8312,0,9424
934,0,0,0,0,11,1790,0,1435202,1313548,0,14287
935,0,0,0,0,0,0,0,12364,9040,0,10415
936,0,0,0,0,5,695,0,1025934,971867,0,12499
937,0,0,0,0,0,0,0,8411,6090,0,9296
938,0,0,0,0,11,1569,0,1127780,1022143,0,12898
939,0,0,0,0,0,0,0,8900,6011,0,9243
940,0,0,0,0,3,986,0,872551,748032,0,16821
941,0,0,0,0,0,0,0,3627,2386,0,8641
942,0,0,0,0,6,431,0,471461,408933,0,16946
943,0,0,0,0,0,0,0,3554,2116,0,9222
944,0,0,0,1,6,648,0,737887,632627,0,22085
945,0,0,0,0,0,0,0,4326,2779,0,12841
946,0,0,0,0,5,366,0,580789,544431,0,22600
947,0,0,0,0,0,0,0,2726,1829,0,10431
948,0,0,0,0,1,339,0,488249,445255,0,16402
949,0,0,0,0,0,0,0,3721,2288,0,10459
950,0,0,0,0,4,766,0,761255,665373,0,22402
951,0,0,0,0,0,0,0,5952,3457,0,10203
952,0,0,0,0,2,646,0,654092,522505,0,12950
953,0,0,0,0,0,0,0,4376,2554,0,7887
954,0,0,0,0,3,693,0,704890,625831,0,12982
955,0,0,0,0,0,0,0,6505,4454,0,9609
956,0,0,0,0,7,802,0,889018,842941,0,16253
957,0,0,0,0,0,0,0,5265,3740,0,8313
958,0,0,0,0,2,543,0,595779,536332,0,10583
959,0,0,0,0,0,0,0,3717,2402,0,7238
960,0,0,0,0,2,619,0,647457,558376,0,13134
961,0,0,0,0,0,0,0,6317,4337,0,8565
962,0,0,0,0,11,1292,0,942633,904442,0,13699
963,0,0,0,0,0,0,0,5372,3695,0,6667
964,0,0,0,0,3,598,0,565062,486571,0,9621
965,0,0,0,0,0,0,0,3747,2602,0,5858
966,0,0,0,0,7,987,0,762953,722446,0,12821
967,0,0,0,0,0,0,0,4661,2934,0,7422
968,0,0,0,0,4,606,0,680068,577429,0,11405
969,0,0,0,0,0,0,0,5162,3262,0,8810
970,0,0,0,0,4,1036,0,891576,841912,0,13421
971,0,0,0,0,0,0,0,5126,3526,0,7524
972,0,0,0,0,3,592,0,627982,526547,0,10902
973,0,0,0,0,0,0,0,2098,1136,0,4454
974,0,0,0,0,4,388,0,398328,317814,0,7793
975,0,0,0,0,0,0,0,3068,1697,0,4573
976,0,0,0,0,5,1088,0,831726,656101,0,10194
977,0,0,0,0,0,0,0,8509,5125,0,7622
978,0,0,0,0,22,2550,0,1229465,1047237,0,11720
979,0,0,0,0,0,0,0,10670,7562,0,9227
980,0,0,0,0,9,1775,0,999640,944167,0,10715
981,0,0,0,0,0,0,0,3806,2526,67108832,32215731
982,0,0,0,0,2,396,0,478797,425128,0,9735
983,0,0,0,0,0,0,67108832,1973,1204,0,3443
984,0,0,0,0,10,1310,0,597228,456559,0,6955
985,0,0,0,0,0,0,0,3178,1698,0,2893
986,0,0,0,0,6,1639,0,794865,620204,0,7219
987,0,0,0,0,0,0,0,9727,6704,67108831,32217835
988,0,0,0,0,16,2397,0,1508440,1478051,0,14771
989,0,0,0,0,0,0,0,7526,5544,0,8901
990,0,0,0,0,6,1125,0,693984,625039,0,6996
991,0,0,0,0,0,0,0,4133,2625,0,3587
992,0,0,0,0,11,1975,0,837336,674850,0,6548
993,0,0,0,0,0,0,0,4752,2893,0,3228
994,0,0,0,0,4,812,0,577361,502488,0,6765
995,0,0,0,0,0,0,0,4803,3017,0,5535
996,0,0,0,0,1,1268,0,813090,686050,0,9425
997,0,0,0,0,0,0,0,7242,4552,0,7685
998,0,0,0,0,6,1157,0,799675,692184,0,10385
999,0,0,0,0,0,0,0,3706,2374,0,4117
1000,0,0,0,0,6,730,0,479877,416628,0,5089
1001,0,0,0,0,0,0,0,2576,1704,0,3280
1002,0,0,0,0,4,618,0,604359,561738,0,10251
1003,0,0,0,0,0,0,0,3405,2339,0,5746
1004,0,0,0,0,7,993,0,618222,555553,0,8928
1005,0,0,0,0,0,0,0,5466,3610,0,5954
1006,0,0,0,0,17,2134,0,926442,754004,0,8060
1007,0,0,0,0,0,0,0,3834,2522,0,4251
1008,0,0,0,0,2,475,0,457695,434943,0,6414
1009,0,0,0,0,0,0,0,3569,2585,0,3897
1010,0,0,0,0,11,1928,0,896104,763330,0,6179
1011,0,0,0,0,0,0,0,6328,4491,0,4122
1012,0,0,0,0,8,1441,0,811755,741631,0,6138
1013,0,0,0,0,0,0,0,3727,2780,0,4424
1014,0,0,0,0,3,673,0,545781,503876,0,6146
1015,0,0,0,0,0,0,0,3778,2457,0,4229
1016,0,0,0,0,7,1411,0,791570,684572,0,6557
1017,0,0,0,0,0,0,0,3974,2469,0,3834
1018,0,0,0,0,5,711,0,521152,424982,0,6569
1019,0,0,0,0,0,0,0,2278,1317,0,3796
1020,0,0,0,0,7,787,0,474667,409843,0,6392
1021,0,0,0,0,0,0,0,2151,1737,0,3993
1022,0,0,0,0,3,944,0,551005,545128,0,7807
1023,0,0,0,0,0,0,0,3072,1985,0,5487
1024,0,0,0,0,0,0,0,0,0,0,0
1025,0,0,0,0,0,0,0,0,0,0,0
1026,0,0,0,0,0,109,0,1153972,8113113,0,6358568
1027,0,0,0,0,0,0,0,5316,780790,0,1817605
1028,0,0,0,0,0,134,0,1165149,5403820,0,3268523
1029,0,0,0,0,0,0,0,4428,448859,0,975439
1030,0,0,0,0,0,155,0,1164434,4597775,0,1921973
1031,0,0,0,0,0,0,0,7480,453075,0,557086
1032,0,0,0,0,2,434,0,1828306,6170423,0,2250283
1033,0,0,0,0,0,0,0,13112,547142,0,632015
1034,0,0,0,0,1,456,0,1793402,5548314,0,1933560
1035,0,0,0,0,0,0,0,13424,501066,0,555369
1036,0,0,0,0,1,346,0,1657690,5256171,0,1847337
1037,0,0,0,0,0,0,0,11849,599817,0,602225
1038,0,0,0,0,0,292,0,1631384,6010780,0,1982012
1039,0,0,0,0,0,0,0,8747,419627,0,451285
1040,0,0,0,0,1,184,0,1122457,3806955,0,1342835
1041,0,0,0,0,0,0,0,7259,297154,0,384396
1042,0,0,0,0,2,304,0,1524632,4419431,0,1393639
1043,0,0,0,0,0,0,0,14465,461858,0,497014
1044,0,0,0,0,4,402,0,2136006,5086063,0,1322614
1045,0,0,0,0,0,0,0,20121,507132,0,457214
1046,0,0,0,0,0,422,0,2178210,4599938,0,1102056
1047,0,0,0,0,0,0,0,9270,185392,0,204319
1048,0,0,0,0,0,181,0,1066034,2121507,0,559049
1049,0,0,0,0,0,0,0,9480,162870,0,211667
1050,0,0,0,0,1,682,0,2131117,3944095,0,942445
1051,0,0,0,0,0,0,0,18621,280074,0,398601
1052,0,0,0,0,3,319,0,1811055,3111824,0,774574
1053,0,0,0,0,0,0,0,11203,118679,0,212582
1054,0,0,0,0,2,353,0,1404132,2018002,0,467416
1055,0,0,0,0,0,0,0,14065,105942,0,194111
1056,0,0,0,0,0,461,0,2025117,2797156,0,659297
1057,0,0,0,0,0,0,0,15300,137125,0,290198
1058,0,0,0,0,1,291,0,1532287,2145775,0,598661
1059,0,0,0,0,0,0,0,5884,52674,0,149934
1060,0,0,0,0,0,147,0,911719,1187810,0,313788
1061,0,0,0,0,0,0,0,4953,48144,0,149735
1062,0,0,0,0,1,229,0,1525899,2090073,0,550802
1063,0,0,0,0,0,0,0,8506,65683,0,234858
1064,0,0,0,0,0,235,0,1381816,1555881,0,423329
1065,0,0,0,0,0,0,0,6007,35030,0,130513
1066,0,0,0,0,1,168,0,1160049,1311286,0,315139
1067,0,0,0,0,0,0,0,6729,29896,0,122389
1068,0,0,0,0,1,330,0,1361534,1382154,0,343522
1069,0,0,0,0,0,0,0,10255,37298,0,178496
1070,0,0,0,0,0,299,0,1564588,1688860,0,394484
1071,0,0,0,0,0,0,0,6757,26081,0,118340
1072,0,0,0,0,0,148,0,881380,942375,0,201594
1073,0,0,0,0,0,0,0,4817,14044,0,78985
1074,0,0,0,0,0,251,0,1111848,1090901,0,229008
1075,0,0,0,0,0,0,0,8735,21518,0,129326
1076,0,0,1,0,0,168,0,1363547,1416891,0,265766
1077,0,0,0,0,0,0,0,8926,20007,0,130265
1078,0,0,0,0,0,284,0,1228247,1189637,0,193583
1079,0,0,0,0,0,0,0,8715,15243,0,82649
1080,0,0,0,0,0,234,0,1139321,1151493,0,176345
1081,0,0,0,0,0,0,0,5413,8930,0,73848
1082,0,0,0,0,0,132,0,741455,702066,0,170745
1083,0,0,0,0,0,0,0,5428,9360,0,86618
1084,0,0,0,0,1,182,0,1179177,1113882,0,196282
1085,0,0,0,0,0,0,0,4885,7462,0,69825
1086,0,0,0,0,1,134,0,827239,671906,0,130349
1087,0,0,0,0,0,0,0,6650,9142,0,79091
1088,0,0,0,0,0,219,0,1507897,1345261,0,203448
1089,0,0,0,0,0,0,0,6705,8409,0,72251
1090,0,0,0,0,0,222,0,868509,738452,0,109237
1091,0,0,0,0,0,0,0,5821,6240,0,54870
1092,0,0,0,0,0,283,0,1301353,1105949,0,136300
1093,0,0,0,0,0,0,0,5951,7539,0,62311
1094,0,0,0,0,0,174,0,1021647,881807,0,116913
1095,0,0,0,0,0,0,0,6166,6897,0,54797
1096,0,0,0,0,3,424,0,1384697,1113696,0,103003
1097,0,0,0,0,0,0,0,5030,4778,0,43695
1098,0,0,0,0,1,177,0,868935,698772,0,84163
1099,0,0,0,0,0,0,0,7222,6893,0,63399
1100,0,0,0,0,1,347,0,1771117,1439354,0,125543
1101,0,0,0,0,0,0,0,8834,7916,0,61703
1102,0,0,0,0,0,273,0,1038470,825725,0,83181
1103,0,0,0,0,0,0,0,2378,2193,0,29216
1104,0,0,0,0,2,116,0,505023,406548,0,62712
1105,0,0,0,0,0,0,0,3144,2977,0,39412
1106,0,0,0,1,1,293,0,1356810,1082892,0,112267
1107,0,0,0,0,0,0,0,5739,5228,0,65395
1108,0,0,0,0,0,160,0,907674,767930,0,86697
1109,0,0,0,0,0,0,0,2450,2295,0,33726
1110,0,0,0,0,0,102,0,693609,535288,0,54525
1111,0,0,0,0,0,0,0,5347,3445,0,29765
1112,0,0,1,0,1,539,0,1442678,1129899,0,69964
1113,0,0,0,0,0,0,0,13543,7827,0,46256
1114,0,0,0,0,5,636,0,1474187,1150022,0,77037
1115,0,0,0,0,0,0,0,5705,3650,0,32110
1116,0,0,0,0,1,124,0,666201,533597,0,45468
1117,0,0,0,0,0,0,0,4302,2549,0,29094
1118,0,0,0,0,1,312,0,1173711,856738,0,64651
1119,0,0,0,0,0,0,0,6487,3871,0,41572
1120,0,0,0,0,2,215,0,907388,745040,0,66449
1121,0,0,0,0,0,0,0,2905,1786,0,25093
1122,0,0,0,0,0,138,0,534659,404515,0,42241
1123,0,0,0,0,0,0,0,4744,2707,0,24185
1124,0,0,0,0,1,293,0,1126563,963227,0,64247
1125,0,0,0,0,0,0,0,7115,4146,0,27735
1126,0,0,0,0,4,301,0,832888,647119,0,39724
1127,0,0,0,0,0,0,0,8497,4597,0,22650
1128,0,0,1,0,4,712,0,1368843,1154253,0,35202
1129,0,0,0,0,0,0,0,14866,8304,0,26551
1130,0,0,0,0,3,436,0,1403310,1129497,0,43610
1131,0,0,0,0,0,0,0,8043,4539,0,31210
1132,0,0,0,0,1,323,0,889122,727878,0,33858
1133,0,0,0,0,0,0,0,4399,2446,0,21126
1134,0,0,0,0,0,238,0,842402,665782,0,42920
1135,0,0,0,0,0,0,0,3715,2195,0,18012
1136,0,0,0,0,2,175,0,701192,602426,0,34714
1137,0,0,0,0,0,0,0,3413,2043,0,20419
1138,0,0,0,0,1,319,0,786707,628338,0,44817
1139,0,0,0,0,0,0,0,6532,3099,0,22387
1140,0,0,0,0,2,735,0,1097034,802892,0,37613
1141,0,0,0,0,0,0,0,7783,3810,0,24758
1142,0,0,0,0,3,208,0,969455,816529,0,40757
1143,0,0,0,0,0,0,0,5628,3193,0,22365
1144,0,0,0,0,1,491,0,860317,718891,0,33082
1145,0,0,0,0,0,0,0,5586,2990,0,19757
1146,0,0,0,0,0,546,0,957120,785529,0,40381
1147,0,0,0,0,0,0,0,6120,3132,0,16681
1148,0,0,0,0,0,325,0,814793,630851,0,26677
1149,0,0,0,0,0,0,0,3384,1660,0,12476
1150,0,0,0,0,1,195,0,648814,523263,0,25309
1151,0,0,0,0,0,0,0,5050,3079,0,18777
1152,0,0,0,0,2,305,0,1099049,955314,0,35099
1153,0,0,0,0,0,0,0,6241,3783,0,19455
1154,0,0,0,0,1,340,0,784846,649327,0,22295
1155,0,0,0,0,0,0,0,4775,2467,0,11074
1156,0,0,0,0,2,435,0,825852,665654,0,15794
1157,0,0,0,0,0,0,0,6988,3931,0,10860
1158,0,0,0,0,0,456,0,1073495,976165,0,23043
1159,0,0,0,0,0,0,0,6399,3446,0,12894
1160,0,0,0,0,0,213,0,761229,622815,0,17689
1161,0,0,0,0,0,0,0,6938,3251,0,10785
1162,0,0,0,0,1,559,0,1062971,838243,0,19064
1163,0,0,0,0,0,0,0,7055,3621,0,10647
1164,0,0,0,0,0,255,0,628964,517825,0,16351
1165,0,0,0,0,0,0,0,4854,2706,0,14095
1166,0,0,0,0,0,333,0,780068,680414,0,22617
1167,0,0,0,0,0,0,0,6760,3848,0,15198
1168,0,0,0,0,4,424,0,884208,799710,0,22986
1169,0,0,0,0,0,0,0,4028,2060,0,7007
1170,0,0,0,0,1,271,0,575009,452928,0,13286
1171,0,0,0,0,0,0,0,3702,266,0,4497
1172,0,0,0,0,2,613,0,764148,106088,0,9403
1173,0,0,0,0,0,0,0,30079,233049,0,15253
1174,0,0,0,0,18910,5550,0,3351491,19164103,0,29190
1175,0,0,0,0,0,0,0,35512,263934,0,20849
1176,0,0,0,0,5,599,0,918986,128598,0,12743
1177,0,0,0,0,0,0,0,5286,343,0,5504
1178,0,0,0,0,3,488,0,732031,483216,0,9732
1179,0,0,0,0,0,0,0,3237,1397,0,4323
1180,0,0,0,0,3,403,0,628562,452618,0,14155
1181,0,0,0,0,0,0,0,4788,2284,0,11677
1182,0,0,1,0,6,1014,0,1107292,844208,0,22881
1183,0,0,0,0,0,0,0,8065,4234,0,15185
1184,0,0,0,0,1,609,0,957984,783268,0,16336
1185,0,0,0,0,0,0,0,4287,2013,0,8668
1186,0,0,0,0,3,568,0,624922,454622,0,13662
1187,0,0,0,0,0,0,0,3474,1720,0,9279
1188,0,0,0,0,0,418,0,696854,580563,0,21637
1189,0,0,0,0,0,0,0,3925,2050,0,12577
1190,0,0,0,0,0,355,0,659557,550470,0,18252
1191,0,0,0,0,0,0,0,3306,1558,0,10532
1192,0,0,0,0,0,404,0,599730,440558,0,17305
1193,0,0,0,0,0,0,0,2902,1346,0,9183
1194,0,0,0,0,1,469,0,610672,466396,0,16891
1195,0,0,0,0,0,0,0,2460,1231,0,8290
1196,0,0,0,0,2,178,0,495956,414121,0,13022
1197,0,0,0,0,0,0,0,3184,1665,0,12748
1198,0,0,0,0,4,523,0,798867,637906,0,20291
1199,0,0,0,0,0,0,0,6182,3074,0,17051
1200,0,0,0,0,2,614,0,796108,619387,0,20323
1201,0,0,0,0,0,0,0,1940,892,0,7635
1202,0,0,0,0,2,133,0,251184,179549,0,11353
1203,0,0,0,0,0,0,0,1037,423,0,3977
1204,0,0,0,0,1,278,0,451735,307202,0,12683
1205,0,0,0,0,0,0,0,2377,869,0,8997
1206,0,0,0,0,1,239,0,608091,432421,0,20850
1207,0,0,0,0,0,0,0,5690,2555,0,13168
1208,0,0,0,0,9,1409,0,1123990,856237,0,10770
1209,0,0,0,0,0,0,0,5879,2720,0,10450
1210,0,0,0,0,5,662,0,715150,534478,0,9729
1211,0,0,0,0,0,0,0,2918,1420,0,7697
1212,0,0,0,0,0,206,0,556775,442541,0,14109
1213,0,0,0,0,0,0,0,2238,1075,0,6320
1214,0,0,0,0,2,550,0,540538,381563,0,8593
1215,0,0,0,0,0,0,0,2970,1293,0,5374
1216,0,0,0,0,3,581,0,629816,443749,0,13696
1217,0,0,0,0,0,0,0,3478,1607,0,8476
1218,0,0,0,0,0,463,0,608006,489487,0,12769
1219,0,0,0,0,0,0,0,5029,2505,0,8961
1220,0,0,0,0,8,790,0,808526,602682,0,12535
1221,0,0,0,0,0,0,0,3978,1887,0,7335
1222,0,0,0,0,4,377,0,517991,399175,0,10443
1223,0,0,0,0,0,0,0,4080,1922,0,5824
1224,0,0,0,0,2,753,0,739477,550857,0,8653
1225,0,0,0,0,0,0,0,4649,2214,0,6124
1226,0,0,0,0,4,551,0,661701,513574,0,10215
1227,0,0,0,0,0,0,0,4480,2180,0,7408
1228,0,0,0,0,0,662,0,780995,633470,0,10132
1229,0,0,0,0,0,0,0,2831,1320,0,7091
1230,0,0,0,0,0,224,0,426670,295519,0,9749
1231,0,0,0,0,0,0,0,2998,1299,0,7444
1232,0,0,0,0,3,538,0,706808,515997,0,14257
1233,0,0,0,0,0,0,0,2388,923,0,6467
1234,0,0,0,0,1,237,0,323182,221070,0,9237
1235,0,0,0,0,0,0,0,1702,704,0,4624
1236,0,0,1,0,2,371,0,498496,379732,0,11183
1237,0,0,0,0,0,0,0,2247,1126,0,7188
1238,0,0,0,0,1,184,0,410132,347480,0,13078
1239,0,0,0,0,0,0,0,2250,1071,0,8380
1240,0,0,0,0,0,465,0,567573,400776,0,9820
1241,0,0,0,0,0,0,0,2377,1004,0,4757
1242,0,0,0,0,1,336,0,453568,303923,0,5806
1243,0,0,0,0,0,0,0,4019,1718,0,4008
1244,0,0,0,0,2,768,0,825308,668923,0,7286
1245,0,0,0,0,0,0,0,6397,3004,0,4837
1246,0,0,0,0,7,1111,0,808255,553896,0,6231
1247,0,0,0,0,0,0,0,6035,2671,0,5850
1248,0,0,1,0,3,825,0,753482,586889,0,6708
1249,0,0,0,0,0,0,0,4373,2220,0,6172
1250,0,0,0,0,0,456,0,592183,466018,0,8809
1251,0,0,0,0,0,0,0,2811,1261,0,4178
1252,0,0,0,0,2,576,0,510325,361420,0,6137
1253,0,0,0,0,0,0,0,1546,730,0,2399
1254,0,0,0,0,2,304,0,358223,258673,0,5533
1255,0,0,0,0,0,0,0,2952,1478,0,4685
1256,0,0,0,0,4,1082,0,803884,670731,0,9206
1257,0,0,0,0,0,0,0,7091,3829,0,6596
1258,0,0,0,0,3,1126,0,822432,639227,0,6866
1259,0,0,0,0,0,0,0,6647,3028,0,4743
1260,0,0,0,0,3,867,0,713170,507940,0,5105
1261,0,0,0,0,0,0,0,3298,1451,0,3945
1262,0,0,0,0,0,320,0,442536,322364,0,7259
1263,0,0,0,0,0,0,0,1789,789,0,5172
1264,0,0,0,0,1,327,0,385315,281336,0,7777
1265,0,0,0,0,0,0,0,1869,748,0,4078
1266,0,0,0,0,1,352,0,395756,272968,0,7704
1267,0,0,0,0,0,0,0,1440,698,0,3894
1268,0,0,0,0,0,179,0,277629,234179,0,7887
1269,0,0,0,0,0,0,0,1144,606,0,5730
1270,0,0,0,0,2,198,0,329522,254961,0,10647
1271,0,0,0,0,0,0,0,1160,570,0,6753
1272,0,0,0,0,0,170,0,307612,259738,0,8925
1273,0,0,0,0,0,0,0,1188,550,0,4070
1274,0,0,0,0,0,220,0,331793,217557,0,6249
1275,0,0,0,0,0,0,0,1502,605,0,5347
1276,0,0,0,0,2,337,0,404456,335178,0,9565
1277,0,0,0,0,0,0,0,1986,1052,0,13023
1278,0,0,0,0,1,242,0,447911,349613,0,17422
1279,0,0,0,0,0,0,0,2272,899,0,7716
1280,0,0,0,0,0,0,0,0,0,0,0
1281,0,0,0,0,0,0,0,0,0,0,0
1282,0,0,0,0,4,585,0,1387373,3658337,0,1456022
1283,0,0,0,0,0,0,0,8344,197003,0,286498
1284,0,0,0,0,4,512,0,1513531,5074258,0,2056474
1285,0,0,0,0,0,0,0,12743,446518,0,619598
1286,0,0,0,0,6,827,0,1979700,6505640,0,2913750
1287,0,0,0,0,0,1,0,13222,464709,0,692422
1288,0,0,0,0,6,892,0,1597616,5001937,0,2029858
1289,0,0,0,0,0,0,0,14726,405014,0,603664
1290,0,0,0,0,8,1554,0,2355658,6185353,0,2440099
1291,0,0,0,0,0,0,0,29822,624231,0,803095
1292,0,0,1,0,24,1931,0,2831747,7673976,0,2729985
1293,0,0,0,0,0,0,0,13283,391372,0,509005
1294,0,0,0,0,2,599,0,1229950,3990943,0,1661483
1295,0,0,0,0,0,0,0,14244,391844,0,528639
1296,0,0,0,0,30,2879,0,2767072,6990214,0,2541271
1297,0,0,0,0,0,0,0,19961,490860,0,715506
1298,0,0,1,0,4,534,0,1529156,4511319,0,1921844
1299,0,0,0,0,0,0,0,13729,384611,0,540485
1300,0,0,0,0,6,813,0,2037303,4938061,0,1645250
1301,0,0,0,0,0,0,0,11842,227673,0,356089
1302,0,0,0,0,9,730,0,1391496,3052404,0,1153855
1303,0,0,0,0,0,0,0,15132,248360,0,410582
1304,0,0,0,0,5,1144,0,2318657,4683624,0,1449081
1305,0,0,0,0,0,0,0,16361,247137,0,407591
1306,0,0,1,0,8,632,0,1656903,3012971,0,922053
1307,0,0,0,0,0,0,0,16077,135064,0,254853
1308,0,0,0,0,9,1731,0,2088329,3018016,0,807028
1309,0,0,0,0,0,0,0,21502,130319,0,256299
1310,0,0,0,0,6,1475,0,2094213,2976717,0,752775
1311,0,0,0,0,0,0,0,20317,143564,0,317101
1312,0,0,0,0,2,871,0,2066117,2843273,0,734889
1313,0,0,0,0,0,0,0,15003,86415,0,227511
1314,0,0,0,0,8,844,0,1720120,2166585,0,517987
1315,0,0,0,0,0,0,0,13888,65997,0,172564
1316,0,0,0,0,6,934,0,1895121,2220249,0,518742
1317,0,0,0,0,0,0,0,12005,59465,0,192679
1318,0,0,0,0,4,688,0,1658388,1913583,0,486394
1319,0,0,0,0,0,0,0,14916,62186,0,221891
1320,0,0,0,0,15,1532,0,2167636,2407617,0,514759
1321,0,0,0,0,0,0,0,12368,38554,0,147073
1322,0,0,0,0,3,883,0,1389071,1414170,0,318121
1323,0,0,0,0,0,0,0,10481,25152,0,104782
1324,0,0,0,0,10,1326,0,1856885,1764048,0,306590
1325,0,0,0,0,0,0,0,19600,43148,0,186521
1326,0,0,0,0,14,1480,0,2486379,2447012,0,450562
1327,0,0,0,0,0,0,0,18679,37699,0,190062
1328,0,0,0,1,6,1579,0,1676665,1525068,0,271632
1329,0,0,0,0,0,0,0,9785,13247,0,85199
1330,0,0,0,0,6,1513,0,1442207,1190254,0,201776
1331,0,0,0,0,0,0,0,11624,17361,0,100874
1332,0,0,0,0,6,1067,0,2060760,1913416,0,323819
1333,0,0,0,0,0,0,0,13583,19309,0,114562
1334,0,0,0,0,7,1391,0,1517820,1291717,0,207342
1335,0,0,0,0,0,0,0,8540,10025,0,80063
1336,0,0,0,0,8,1166,0,1295181,1105979,0,191801
1337,0,0,0,0,0,0,0,15072,15141,0,78634
1338,0,0,0,0,31,2548,0,2529722,2139494,0,165762
1339,0,0,0,0,0,0,0,22615,20253,0,67055
1340,0,0,0,0,13,1435,0,1793778,1574369,0,124357
1341,0,0,0,0,0,0,0,19998,17746,0,81543
1342,0,0,0,0,17,2516,0,2384775,2026644,0,148688
1343,0,0,0,0,0,0,0,25301,20030,0,88084
1344,0,0,0,0,14,1867,0,2119431,1675272,0,135348
1345,0,0,0,0,0,0,0,10677,8175,0,47448
1346,0,0,1,0,6,829,0,1081889,896199,0,91544
1347,0,0,0,0,0,0,0,7412,5768,0,41337
1348,0,0,0,0,7,1163,0,1441429,1178481,0,132357
1349,0,0,0,0,0,0,0,11999,8764,0,65798
1350,0,0,0,0,9,1591,0,1706716,1451948,0,131629
1351,0,0,0,0,0,0,0,15554,11003,0,66100
1352,0,0,0,0,6,1438,0,1617620,1352330,0,113738
1353,0,0,0,0,0,0,0,11783,8530,0,55971
1354,0,0,0,0,6,1329,0,1391369,1169685,0,103354
1355,0,0,0,0,0,0,0,10936,6537,0,39437
1356,0,0,0,0,16,2353,0,1508590,1121518,0,75835
1357,0,0,0,0,0,0,0,10933,6428,0,43934
1358,0,0,0,0,7,1092,0,1474525,1214914,0,90965
1359,0,0,0,0,0,0,0,13983,10108,0,64771
1360,0,0,0,0,5,1404,0,1934345,1662092,0,106303
1361,0,0,0,0,0,0,0,10042,6867,0,40328
1362,0,0,1,0,9,1176,0,1044274,887188,0,58653
1363,0,0,0,0,0,0,0,6825,4275,0,30299
1364,0,0,0,0,6,973,0,1060144,875742,0,90535
1365,0,0,0,0,0,0,0,5350,3771,0,45114
1366,0,0,0,0,4,516,0,840793,754037,0,84909
1367,0,0,0,0,0,0,0,3078,2317,67108832,45319
1368,0,0,0,0,0,200,0,688273,597215,0,81877
1369,0,0,0,0,0,0,0,2653,2011,0,36515
1370,0,0,0,0,2,352,0,737794,594971,0,74634
1371,0,0,0,0,0,0,0,3262,2142,0,32097
1372,0,0,0,0,5,584,0,827993,670735,0,64920
1373,0,0,0,0,0,0,0,5497,3657,0,41362
1374,0,0,0,0,5,901,0,1210662,1128167,0,79743
1375,0,0,0,0,0,1,0,6915,4457,67108832,32246560
1376,0,0,0,0,6,854,0,922161,733314,0,55672
1377,0,0,0,0,0,0,0,4992,3008,0,28517
1378,0,0,0,0,4,666,0,995946,835926,0,59155
1379,0,0,0,0,0,0,0,3397,2141,0,28492
1380,0,0,0,0,0,305,0,634737,543563,0,51312
1381,0,0,0,0,0,0,0,4249,2448,0,28306
1382,0,0,0,0,12,1112,0,1136361,924341,0,55823
1383,0,0,0,0,0,0,0,7821,4285,0,24170
1384,0,0,0,0,3,856,0,971013,824229,0,43898
1385,0,0,0,0,0,0,0,6766,3712,0,19581
1386,0,0,1,0,7,1204,0,1043967,832978,0,30537
1387,0,0,0,0,0,0,0,14410,7977,0,23818
1388,0,0,0,0,14,2312,0,1689013,1455954,0,45629
1389,0,0,0,0,0,0,0,9454,5531,0,22834
1390,0,0,0,0,3,523,0,855462,719821,0,27097
1391,0,0,0,0,0,0,0,5809,3283,0,12746
1392,0,0,0,0,14,1514,0,1178581,986412,0,20813
1393,0,0,0,0,0,0,0,12373,7145,0,19173
1394,0,0,0,0,12,1543,0,1575806,1275972,0,44686
1395,0,0,0,0,0,0,0,9574,5747,0,25619
1396,0,0,0,0,7,1034,0,921338,779687,0,29469
1397,0,0,0,0,0,0,0,2534,1477,0,10834
1398,0,0,0,0,0,301,0,537461,427495,0,23475
1399,0,0,0,0,0,0,0,2538,1480,0,11401
1400,0,0,0,0,5,791,0,868792,796664,0,34249
1401,0,0,0,0,0,0,0,7396,4757,0,25497
1402,0,0,1,0,7,1587,0,1342684,1180791,0,43358
1403,0,0,0,0,0,0,67108832,4500,2877,0,15697
1404,0,0,0,0,4,563,0,564383,478203,0,18824
1405,0,0,0,0,0,0,0,3814,2086,67108832,11308
1406,0,0,0,0,9,1192,67108832,1096792,919300,0,27633
1407,0,0,0,0,0,0,0,8807,4759,0,32226677
1408,0,0,1,0,11,1477,0,1202818,969566,0,28060
1409,0,0,0,0,0,0,0,7432,4057,0,15851
1410,0,0,0,0,8,1288,0,1014938,872422,0,21523
1411,0,0,0,0,0,0,0,8071,4711,0,11551
1412,0,0,0,0,19,1868,0,1186447,991750,0,22167
1413,0,0,0,0,0,0,0,5249,3013,0,11868
1414,0,0,0,0,2,714,0,749933,643570,0,21885
1415,0,0,0,0,0,0,0,3796,2182,0,12424
1416,0,0,0,0,3,793,0,805238,684493,0,22164
1417,0,0,0,0,0,0,0,5850,3498,0,11114
1418,0,0,0,0,10,1588,0,996678,853383,0,18762
1419,0,0,0,0,0,0,0,6312,3712,0,10444
1420,0,0,0,0,9,868,0,794807,713546,0,17391
1421,0,0,0,0,0,0,0,5305,3251,0,13034
1422,0,0,0,0,2,763,0,887793,810451,0,21411
1423,0,0,0,0,0,0,0,4247,2693,0,10449
1424,0,0,0,0,7,646,0,578623,503996,0,14316
1425,0,0,0,0,0,0,0,4102,2361,0,8196
1426,0,0,0,0,8,1169,0,876872,739789,0,15701
1427,0,0,0,0,0,0,0,5569,3424,0,12649
1428,0,0,0,0,1,512,0,735751,683173,0,25243
1429,0,0,0,0,0,0,0,3973,2385,0,13692
1430,0,0,0,0,1,512,0,592853,472287,0,19727
1431,0,0,0,0,0,0,0,1732,901,0,7254
1432,0,0,0,0,2,372,0,380457,315044,0,15369
1433,0,0,0,0,0,0,0,2062,1199,0,8751
1434,0,0,0,0,4,923,0,756595,658303,0,23492
1435,0,0,0,0,0,0,0,4217,2572,0,14944
1436,0,0,0,0,4,742,0,737455,681602,0,22132
1437,0,0,0,0,0,0,0,1745,1127,0,8649
1438,0,0,0,0,1,321,0,404912,342463,0,11005
1439,0,0,0,0,0,0,0,3064,1894,0,7317
1440,0,0,0,0,10,1645,0,1108853,958342,0,15861
1441,0,0,0,0,0,0,0,6395,4059,0,12274
1442,0,0,0,0,3,602,0,665027,589733,0,18176
1443,0,0,0,0,0,0,0,3985,2599,0,8520
1444,0,0,0,0,4,792,0,689805,600013,0,11401
1445,0,0,0,0,0,0,0,2144,1331,0,5366
1446,0,0,0,0,2,475,0,403641,374288,0,10474
1447,0,0,0,0,0,0,0,2401,1556,0,8239
1448,0,0,0,0,5,828,0,709110,602513,0,19269
1449,0,0,0,0,0,0,0,3866,2248,0,13198
1450,0,0,0,0,4,909,0,656275,559576,0,19083
1451,0,0,0,0,0,0,0,1531,818,0,8556
1452,0,0,0,0,0,203,0,286296,218539,0,14158
1453,0,0,0,0,0,0,0,832,400,0,5814
1454,0,0,0,0,2,494,0,391536,307128,0,14636
1455,0,0,0,0,0,0,0,1591,972,0,8588
1456,0,0,0,0,3,603,0,530717,462489,0,17212
1457,0,0,0,0,0,0,0,1539,971,0,11658
1458,0,0,0,0,4,373,0,470065,424658,0,16505
1459,0,0,0,0,0,0,0,3133,1873,0,9857
1460,0,0,1,0,16,1822,0,886805,707546,0,16248
1461,0,0,0,0,0,0,0,1799,1004,0,5106
1462,0,0,0,0,6,389,0,308057,250625,0,7970
1463,0,0,0,0,0,0,0,1367,757,0,5190
1464,0,0,0,0,3,782,0,644162,550282,0,12328
1465,0,0,0,0,0,0,0,3481,2038,0,9666
1466,0,0,0,0,1,774,0,671227,580016,0,14511
1467,0,0,0,0,0,0,0,2242,1330,0,8272
1468,0,0,0,0,1,374,0,416914,365470,0,9244
1469,0,0,0,0,0,0,0,1523,899,67108832,32212886
1470,0,0,0,0,1,697,0,505792,404255,0,7097
1471,0,0,0,0,0,0,0,1712,893,0,3889
1472,0,0,0,0,2,393,0,433391,336620,0,8461
1473,0,0,0,0,0,0,0,3191,1780,0,7997
1474,0,0,0,0,6,1092,0,896586,768002,0,13298
1475,0,0,0,0,0,0,0,3199,1869,0,6734
1476,0,0,0,1,0,476,0,419969,330989,0,6428
1477,0,0,0,0,0,0,0,1377,835,0,3157
1478,0,0,0,0,3,464,0,422241,343725,0,6557
1479,0,0,0,0,0,0,0,2337,1329,0,4282
1480,0,0,0,0,3,981,0,629132,530312,0,8969
1481,0,0,0,0,0,0,0,4282,2512,0,6201
1482,0,0,0,0,9,1531,0,839350,655956,0,8025
1483,0,0,0,0,0,0,0,3614,2130,0,4638
1484,0,0,0,0,5,609,0,537903,450967,0,5803
1485,0,0,0,0,0,0,0,1732,1096,0,3557
1486,0,0,0,0,5,642,0,523304,446891,0,6611
1487,0,0,0,0,0,0,0,2529,1545,0,3636
1488,0,0,0,0,6,799,0,620129,492794,0,5617
1489,0,0,0,0,0,0,0,3822,2159,0,4150
1490,0,0,0,0,3,999,0,687902,547292,0,7386
1491,0,0,0,0,0,0,0,4683,2545,0,4220
1492,0,0,0,0,7,1175,0,678909,489088,0,5667
1493,0,0,0,0,0,0,0,2624,1314,0,3348
1494,0,0,0,0,3,644,0,454276,367994,0,4944
1495,0,0,0,0,0,0,0,2921,1730,0,4293
1496,0,0,0,0,3,1037,0,714976,565483,0,9017
1497,0,0,0,0,0,0,0,3332,1855,0,4275
1498,0,0,0,0,12,1136,0,532255,407761,0,5070
1499,0,0,0,0,0,0,0,1481,796,0,2843
1500,0,0,0,0,2,459,0,361959,286153,0,5413
1501,0,0,0,0,0,0,0,1703,971,0,3529
1502,0,0,0,0,2,747,0,616790,495134,0,7624
1503,0,0,0,0,0,0,0,1621,875,0,4080
1504,0,0,0,0,0,317,0,361135,296507,0,4787
1505,0,0,0,0,0,0,0,1936,1134,0,3829
1506,0,0,0,0,5,1404,0,799491,635032,0,6864
1507,0,0,0,0,0,0,0,3387,1858,0,2845
1508,0,0,1,0,14,1269,0,523690,363898,0,3663
1509,0,0,0,0,0,0,0,1994,925,0,1529
1510,0,0,0,0,1,659,0,519698,419744,0,3267
1511,0,0,0,0,0,0,0,2217,1374,0,2057
1512,0,0,0,0,3,633,0,567043,476406,0,4501
1513,0,0,0,0,0,0,0,5166,2938,0,3774
1514,0,0,0,0,20,2478,0,1061134,716243,0,4065
1515,0,0,0,0,0,0,0,5366,3073,0,2917
1516,0,0,0,0,4,944,0,624707,502830,0,3318
1517,0,0,0,0,0,0,67108832,1881,1028,0,2026
1518,0,0,0,0,1,411,0,412728,318751,0,3149
1519,0,0,0,0,0,0,67108832,1772,993,67108832,32210706
1520,0,0,0,0,16,1294,0,564206,416826,0,3391
1521,0,0,0,0,0,0,0,2285,1300,0,2034
1522,0,0,0,0,10,954,0,558619,445972,0,4095
1523,0,0,0,0,0,0,0,4632,2610,0,2800
1524,0,0,0,0,26,2380,0,970300,716695,0,3989
1525,0,0,0,0,0,0,0,2782,1520,0,2176
1526,0,0,0,0,1,371,0,382474,274345,0,2632
1527,0,0,0,0,0,0,0,2435,1404,67108832,1453
1528,0,0,0,0,15,2189,0,883151,697739,0,2472
1529,0,0,0,0,0,0,0,4231,2331,0,1512
1530,0,0,1,0,7,1071,0,619531,465523,0,2642
1531,0,0,0,0,0,0,67108831,5938,3536,0,4103
1532,0,0,0,0,16,2576,0,1061521,866676,0,5294
1533,0,0,0,0,0,0,0,3631,2133,0,32213785
1534,0,0,0,0,1,331,0,322149,255678,0,4749
1535,0,0,0,0,0,0,0,744,297,0,2197
1536,0,0,0,0,0,0,0,0,0,0,0
1537,0,0,0,0,0,0,0,0,0,0,0
1538,0,0,0,0,1,158,0,796354,3175504,0,1575842
1539,0,0,0,0,0,0,0,5071,200948,0,367289
1540,0,0,0,0,0,291,0,1295005,5715690,0,2950996
1541,0,0,0,0,0,0,0,5585,256200,0,496888
1542,0,0,0,0,0,180,0,920938,3951266,0,2063925
1543,0,0,0,0,0,0,0,7172,222029,0,435999
1544,0,0,0,0,4,626,0,1599017,4907062,0,2057240
1545,0,0,0,0,0,0,0,26929,716790,0,1048342
1546,0,0,0,0,2,812,0,3185982,9574596,0,3644020
1547,0,0,0,0,0,0,0,15940,533799,0,818976
1548,0,0,0,0,1,279,0,1022997,3688447,0,1628691
1549,0,0,0,0,0,0,0,5958,182093,0,316934
1550,0,0,0,0,3,805,0,1384854,4461578,0,1802074
1551,0,0,0,0,0,0,0,13549,418032,0,646738
1552,0,0,0,0,0,435,0,2024212,6945723,0,3017054
1553,0,0,0,0,0,0,0,14899,488285,0,740734
1554,0,0,0,0,5,677,0,1625793,4642659,0,1742535
1555,0,0,0,0,0,0,0,7137,205785,0,357710
1556,0,0,0,0,0,270,0,1041347,3179628,0,1312301
1557,0,0,0,0,0,0,0,10289,254793,0,467469
1558,0,0,0,0,2,1092,0,2293336,5287960,0,1832326
1559,0,0,0,0,0,0,0,13848,314495,0,542537
1560,0,0,0,0,1,324,0,1410093,3475772,0,1221617
1561,0,0,0,0,0,0,0,8651,174111,0,299575
1562,0,0,0,0,4,738,0,1713643,3253758,0,940950
1563,0,0,0,0,0,0,0,8963,116489,0,240652
1564,0,0,0,0,1,451,0,1410927,2704275,0,897162
1565,0,0,0,0,0,0,0,9265,120741,0,319858
1566,0,0,0,0,2,609,0,1690495,2936627,0,955706
1567,0,0,0,0,0,0,0,13001,118871,0,335172
1568,0,0,0,0,3,720,0,1700369,2754563,0,804280
1569,0,0,0,0,0,0,0,7906,59799,0,185516
1570,0,0,0,0,0,281,0,1088082,1672615,0,511399
1571,0,0,0,0,0,0,0,4737,38235,0,149634
1572,0,0,0,0,0,248,0,1130869,1713092,0,534688
1573,0,0,0,0,0,0,0,10629,66753,0,238244
1574,0,0,0,0,7,994,0,2237919,2817134,0,599304
1575,0,0,0,0,0,0,0,12399,55021,0,201060
1576,0,0,0,0,1,362,0,1193035,1528083,0,374988
1577,0,0,0,0,0,0,0,7084,33032,0,154038
1578,0,0,0,0,0,270,0,1414490,1765395,0,430183
1579,0,0,0,0,0,0,0,5524,24728,0,140177
1580,0,0,0,0,1,226,0,959990,1198920,0,323890
1581,0,0,0,0,0,0,0,4183,15115,0,106378
1582,0,0,0,0,0,329,0,1045586,1183462,0,294371
1583,0,0,0,0,0,0,0,8034,20321,0,139461
1584,0,0,0,0,1,479,0,1555496,1835532,0,395037
1585,0,0,0,0,0,0,0,7536,14865,0,104606
1586,0,0,0,0,0,297,0,896474,985964,0,201264
1587,0,0,0,0,0,0,0,8206,10836,0,68638
1588,0,0,0,0,6,668,0,1412029,1441935,0,196532
1589,0,0,0,0,0,0,0,13549,18727,0,107994
1590,0,0,0,0,1,503,0,1572148,1613684,0,248180
1591,0,0,0,0,0,0,0,11440,17192,0,126625
1592,0,0,0,0,1,330,0,1286462,1324813,0,193688
1593,0,0,0,0,0,0,0,5443,8300,0,64684
1594,0,0,0,0,2,247,0,893454,918996,0,151466
1595,0,0,0,0,0,0,0,2783,4140,0,39706
1596,0,0,0,0,0,289,0,792861,769029,0,121150
1597,0,0,0,0,0,0,0,7014,8863,0,73006
1598,0,0,0,0,4,911,0,2057614,1975263,0,204375
1599,0,0,0,0,0,0,0,14569,16495,0,98125
1600,0,0,0,0,3,628,0,1464692,1396765,0,132212
1601,0,0,0,0,0,0,0,9633,9243,0,59323
1602,0,0,0,0,4,873,0,1433322,1258844,0,107729
1603,0,0,0,0,0,0,0,8810,7018,0,45529
1604,0,0,0,0,2,484,0,1155659,1059087,0,116522
1605,0,0,0,0,0,0,0,6364,5522,0,51136
1606,0,0,0,0,3,378,0,1039729,923185,0,115986
1607,0,0,0,0,0,0,0,5035,4799,0,63564
1608,0,0,0,0,1,209,0,971000,882969,0,136463
1609,0,0,0,0,0,0,0,2907,2942,0,57422
1610,0,0,0,0,0,142,0,661047,582545,0,106712
1611,0,0,0,0,0,0,0,2189,2162,0,46350
1612,0,0,0,0,0,117,0,740138,709313,0,123167
1613,0,0,0,0,0,0,0,2735,2167,0,37966
1614,0,0,0,0,1,430,0,748241,640318,0,84772
1615,0,0,0,0,0,0,0,5038,3270,0,39114
1616,0,0,0,0,0,434,0,1075571,1003186,0,94459
1617,0,0,0,0,0,0,0,7482,5356,0,53953
1618,0,0,0,0,3,359,0,1147475,1005582,0,95782
1619,0,0,0,0,0,0,0,5926,3866,0,37150
1620,0,0,0,0,5,681,0,1004123,829771,0,53310
1621,0,0,0,0,0,0,0,6103,4096,0,31340
1622,0,0,0,0,1,431,0,1293174,1205484,0,75136
1623,0,0,0,0,0,0,0,3764,3414,0,32798
1624,0,0,0,0,1,165,0,680560,657648,0,58838
1625,0,0,0,0,0,0,0,2909,2042,0,24038
1626,0,0,0,0,4,815,0,936320,793503,0,48189
1627,0,0,0,0,0,0,0,4730,2723,0,27698
1628,0,0,0,0,0,298,0,896810,762470,0,71471
1629,0,0,0,0,0,0,0,6686,4056,0,38048
1630,0,0,0,0,2,548,0,1220977,1098270,0,60136
1631,0,0,0,0,0,0,0,4120,2559,0,22526
1632,0,0,0,0,2,287,0,640834,549714,0,40797
1633,0,0,0,0,0,0,0,2843,1638,0,18479
1634,0,0,0,0,2,292,0,881803,746666,0,50362
1635,0,0,0,0,0,0,0,4609,2645,0,23887
1636,0,0,1,0,1,418,0,922701,811448,0,45782
1637,0,0,0,0,0,0,0,6626,3829,0,27872
1638,0,0,0,0,1,776,0,1124887,1033703,0,46391
1639,0,0,0,0,0,0,0,5046,3326,0,22793
1640,0,0,0,0,0,277,0,785731,738781,0,36645
1641,0,0,0,0,0,0,0,3422,2200,0,16236
1642,0,0,0,0,0,380,0,800698,724881,0,32630
1643,0,0,0,0,0,0,0,5471,3225,0,18989
1644,0,0,0,0,3,697,0,1144689,1042206,0,41861
1645,0,0,0,0,0,0,0,5907,3382,0,21159
1646,0,0,0,0,0,385,0,766324,665416,0,38766
1647,0,0,0,0,0,0,0,3989,2309,0,16437
1648,0,0,0,0,5,358,0,724047,673118,0,31612
1649,0,0,0,0,0,0,0,3680,2205,0,16355
1650,0,0,0,0,0,362,0,703175,666292,0,34975
1651,0,0,0,0,0,0,0,3497,2134,0,20917
1652,0,0,0,0,2,202,0,660434,636413,0,39414
1653,0,0,0,0,0,0,0,2031,1168,0,15875
1654,0,0,0,0,2,108,0,467543,424521,0,26090
1655,0,0,0,0,0,0,0,1697,1024,0,17998
1656,0,0,0,0,2,266,0,606673,562769,0,37639
1657,0,0,0,0,0,0,0,2630,1543,0,25842
1658,0,0,0,0,1,340,0,717517,637655,0,47389
1659,0,0,0,0,0,0,0,12099,6716,0,14678
1660,0,0,0,0,91,6011,0,1657184,1341107,0,23011
1661,0,0,0,0,0,0,0,1828,984,0,8924
1662,0,0,0,0,165,11711,0,2491477,2028553,0,36337
1663,0,0,0,0,0,0,0,17250,10719,0,21648
1664,0,0,0,0,1,362,0,652180,629525,0,33884
1665,0,0,0,0,0,0,0,1854,1148,0,13055
1666,0,0,0,0,2,239,0,520372,482387,0,15587
1667,0,0,0,0,0,0,0,3360,2032,0,13745
1668,0,0,0,0,1,638,0,1074461,999950,0,27355
1669,0,0,0,0,0,0,0,4086,2671,0,22655
1670,0,0,0,0,2,303,0,607468,605678,0,30834
1671,0,0,0,0,0,0,0,11738,7739,0,10605
1672,0,0,0,0,137,8448,0,1698197,1407756,0,16816
1673,0,0,0,0,0,0,0,1213,650,0,4782
1674,0,0,0,3,104,6639,0,1525346,1313367,0,21566
1675,0,0,0,0,0,0,0,10795,6794,0,11888
1676,0,0,0,0,0,272,0,560013,548593,0,28735
1677,0,0,0,0,0,0,0,2976,1740,0,15792
1678,0,0,0,0,3,455,0,642826,599903,0,20416
1679,0,0,0,0,0,0,0,4586,2634,0,10344
1680,0,0,0,0,6,815,0,875871,765108,0,14658
1681,0,0,0,0,0,0,0,4273,2450,0,6639
1682,0,0,0,0,3,386,0,652648,638729,0,11110
1683,0,0,0,0,0,0,0,4254,2683,0,7343
1684,0,0,0,0,4,398,0,823782,793705,0,14872
1685,0,0,0,0,0,0,0,4253,2332,0,7278
1686,0,0,0,0,1,651,0,696188,580361,0,10125
1687,0,0,0,0,0,0,0,3867,2077,0,6727
1688,0,0,0,0,1,320,0,721879,667496,0,14115
1689,0,0,0,0,0,0,0,3459,1968,0,7693
1690,0,0,0,0,4,414,0,594205,548811,0,13553
1691,0,0,0,0,0,0,0,2016,1165,0,6186
1692,0,0,0,0,0,281,0,434156,422011,0,11564
1693,0,0,0,0,0,0,0,1961,1094,0,5864
1694,0,0,0,0,3,383,0,577824,557224,0,13479
1695,0,0,0,0,0,0,0,2951,1860,0,8697
1696,0,0,0,0,1,302,0,603174,576287,0,16527
1697,0,0,0,0,0,0,0,2510,1336,0,8191
1698,0,0,0,0,4,355,0,488573,370272,0,10703
1699,0,0,0,0,0,1,0,2165,932,0,5176
1700,0,0,0,1,1,326,0,494125,412443,0,9491
1701,0,0,0,0,0,0,0,2477,1452,0,6267
1702,0,0,0,0,0,314,0,614530,629832,0,13391
1703,0,0,0,0,0,0,0,2870,1819,0,6074
1704,0,0,0,0,1,534,0,602592,556809,0,8082
1705,0,0,0,0,0,0,0,3242,1853,0,6126
1706,0,0,0,0,1,458,0,661594,599275,0,10427
1707,0,0,0,0,0,0,0,3157,1774,0,5604
1708,0,0,0,0,1,344,0,546858,515771,0,7471
1709,0,0,0,0,0,0,0,2528,1340,0,3743
1710,0,0,0,0,1,550,0,563331,469137,0,5711
1711,0,0,0,0,0,0,0,3692,2305,0,6653
1712,0,0,0,0,2,459,0,824858,781149,0,15498
1713,0,0,0,0,0,0,0,2653,1683,0,9217
1714,0,0,0,0,1,164,0,378869,332096,0,8867
1715,0,0,0,0,0,0,0,776,345,0,2875
1716,0,0,0,0,1,212,0,264625,218477,0,5576
1717,0,0,0,0,0,0,0,724,347,0,2544
1718,0,0,0,0,0,239,0,371239,339847,0,9658
1719,0,0,0,0,0,0,0,3054,1601,0,10315
1720,0,0,0,3,531,17383,0,1154643,805674,0,18560
1721,0,0,0,0,0,2,0,7050,3217,0,16815
1722,0,0,2,21,882,30299,0,1552052,968043,0,16328
1723,0,0,0,0,0,0,0,13566,8844,0,7384
1724,0,0,0,21,1005,30886,0,2724925,2322935,0,9995
1725,0,0,0,0,0,0,0,17215,10076,0,1624
1726,0,0,0,24,1063,32068,0,3014077,2345332,0,15368
1727,0,0,0,0,0,1,0,14472,8191,0,8665
1728,0,0,1,26,1397,39819,0,1574341,901419,0,17193
1729,0,0,0,0,0,0,0,2830,1009,0,6853
1730,0,0,0,3,187,7336,0,457799,262578,0,7451
1731,0,0,0,0,0,0,0,2629,1226,0,6693
1732,0,0,0,0,4,509,0,667554,605539,0,9219
1733,0,0,0,0,0,0,0,3009,1864,0,6351
1734,0,0,0,0,2,359,0,456178,427865,0,6210
1735,0,0,0,0,0,0,0,1433,844,0,2939
1736,0,0,0,0,1,327,0,332031,312976,0,3878
1737,0,0,0,0,0,0,0,2072,1201,0,2356
1738,0,0,0,0,4,691,0,650391,585149,0,5906
1739,0,0,0,0,0,0,0,3667,2246,0,4719
1740,0,0,0,0,1,547,0,641792,588100,0,7540
1741,0,0,0,0,0,0,0,1298,796,0,4137
1742,0,0,0,0,0,148,0,271815,258342,0,4965
1743,0,0,0,0,0,0,0,956,683,0,2711
1744,0,0,0,0,4,518,0,448342,420847,0,4952
1745,0,0,0,0,0,0,0,2491,1384,0,2880
1746,0,0,0,0,3,579,0,536869,445036,0,6206
1747,0,0,0,0,0,0,0,2281,1337,0,2995
1748,0,0,0,0,0,322,0,417324,399686,0,4587
1749,0,0,0,0,0,0,0,2199,1451,0,3126
1750,0,0,0,0,3,497,0,533565,504861,0,4754
1751,0,0,0,0,0,0,0,4364,2513,0,2917
1752,0,0,0,0,4,981,0,781376,643333,0,4042
1753,0,0,0,0,0,0,0,3982,2313,0,2394
1754,0,0,0,0,7,475,0,468701,454367,0,4120
1755,0,0,0,0,0,0,0,3380,2299,0,3691
1756,0,0,0,0,0,397,0,539988,524371,0,7043
1757,0,0,0,0,0,0,0,2835,1469,0,4346
1758,0,0,0,1,62,4091,134217664,420649,312568,0,6614
1759,0,0,0,0,0,0,0,1532,1053,0,2960
1760,0,0,0,0,71,3569,0,490424,439761,0,5952
1761,0,0,0,0,0,0,0,4172,2212,0,2804
1762,0,0,0,2,102,4923,0,1233974,839381,0,6902
1763,0,0,0,0,0,0,0,2727,1267,0,4676
1764,0,0,0,0,22,1467,0,383627,294446,0,7854
1765,0,0,0,0,0,0,0,782,382,0,3302
1766,0,0,0,0,59,3024,0,403829,301586,0,4660
1767,0,0,0,0,0,0,0,1347,703,0,2409
1768,0,0,0,0,0,309,0,371563,348684,0,4184
1769,0,0,0,0,0,0,0,1858,1214,0,3251
1770,1,0,0,0,8,654,0,545120,485030,0,5166
1771,0,0,0,0,0,0,0,3225,1991,0,3363
1772,0,0,0,0,2,686,0,582563,543635,0,3961
1773,0,0,0,0,0,0,0,1477,1035,0,2279
1774,0,0,0,0,0,243,0,293795,292970,0,4018
1775,0,0,0,0,0,0,0,478,265,0,1806
1776,0,0,0,0,0,164,0,215131,185556,0,3709
1777,0,0,0,0,0,0,0,535,267,0,2176
1778,0,0,0,0,3,358,0,324659,258897,0,4997
1779,0,0,0,0,0,0,0,1525,840,0,3058
1780,0,0,0,0,0,407,0,482099,424099,0,4487
1781,0,0,0,0,0,0,0,1434,883,0,1975
1782,0,0,0,0,2,257,0,283261,261810,67108832,32211644
1783,0,0,0,0,0,0,0,1184,660,0,1812
1784,0,0,0,0,1,516,0,455486,381686,0,3530
1785,0,0,0,0,0,0,0,2634,1559,0,2548
1786,0,0,0,0,0,416,0,466473,430827,0,3116
1787,0,0,0,0,0,0,0,1611,999,0,27168
1788,0,0,0,0,0,160,0,273020,267282,0,23493
1789,0,0,0,0,0,0,0,1180,868,0,19722
1790,0,0,0,0,0,218,0,294444,284552,0,41414
1791,0,0,0,0,0,0,0,0,0,0,0
1792,0,0,0,0,0,0,0,0,0,0,0
1793,0,0,0,0,0,0,0,0,0,0,0
1794,0,0,0,0,0,0,0,0,0,0,0
1795,0,0,0,0,0,0,0,0,0,0,0
1796,0,0,0,0,0,0,0,0,0,0,0
1797,0,0,0,0,0,0,0,0,0,0,0
1798,0,0,0,0,0,0,0,0,0,0,0
1799,0,0,0,0,0,0,0,0,0,0,0
1800,0,0,0,0,0,0,0,0,0,0,0
1801,0,0,0,0,0,0,0,0,0,0,0
1802,0,0,0,0,0,0,0,0,0,0,0
1803,0,0,0,0,0,0,0,0,0,0,0
1804,0,0,0,0,0,0,0,0,0,0,0
1805,0,0,0,0,0,0,0,0,0,0,0
1806,0,0,0,0,0,0,0,0,0,0,0
1807,0,0,0,0,0,0,0,0,0,0,0
1808,0,0,0,0,0,0,0,0,0,0,0
1809,0,0,0,0,0,0,0,0,0,0,0
1810,0,0,0,0,0,0,0,0,0,0,0
1811,0,0,0,0,0,0,0,0,0,0,0
1812,0,0,0,0,0,0,0,0,0,0,0
1813,0,0,0,0,0,0,0,0,0,0,0
1814,0,0,0,0,0,0,0,0,0,0,0
1815,0,0,0,0,0,0,0,0,0,0,0
1816,0,0,0,0,0,0,0,0,0,0,0
1817,0,0,0,0,0,0,0,0,0,0,0
1818,0,0,0,0,0,0,0,0,0,0,0
1819,0,0,0,0,0,0,0,0,0,0,0
1820,0,0,0,0,0,0,0,0,0,0,0
1821,0,0,0,0,0,0,0,0,0,0,0
1822,0,0,0,0,0,0,0,0,0,0,0
1823,0,0,0,0,0,0,0,0,0,0,0
1824,0,0,0,0,0,0,0,0,0,0,0
1825,0,0,0,0,0,0,0,0,0,0,0
1826,0,0,0,0,0,0,0,0,0,0,0
1827,0,0,0,0,0,0,0,0,0,0,0
1828,0,0,0,0,0,0,0,0,0,0,0
1829,0,0,0,0,0,0,0,0,0,0,0
1830,0,0,0,0,0,0,0,0,0,0,0
1831,0,0,0,0,0,0,0,0,0,0,0
1832,0,0,0,0,0,0,0,0,0,0,0
1833,0,0,0,0,0,0,0,0,0,0,0
1834,0,0,0,0,0,0,0,0,0,0,0
1835,0,0,0,0,0,0,0,0,0,0,0
1836,0,0,0,0,0,0,0,0,0,0,0
1837,0,0,0,0,0,0,0,0,0,0,0
1838,0,0,0,0,0,0,0,0,0,0,0
1839,0,0,0,0,0,0,0,0,0,0,0
1840,0,0,0,0,0,0,0,0,0,0,0
1841,0,0,0,0,0,0,0,0,0,0,0
1842,0,0,0,0,0,0,0,0,0,0,0
1843,0,0,0,0,0,0,0,0,0,0,0
1844,0,0,0,0,0,0,0,0,0,0,0
1845,0,0,0,0,0,0,0,0,0,0,0
1846,0,0,0,0,0,0,0,0,0,0,0
1847,0,0,0,0,0,0,0,0,0,0,0
1848,0,0,0,0,0,0,0,0,0,0,0
1849,0,0,0,0,0,0,0,0,0,0,0
1850,0,0,0,0,0,0,0,0,0,0,0
1851,0,0,0,0,0,0,0,0,0,0,0
1852,0,0,0,0,0,0,0,0,0,0,0
1853,0,0,0,0,0,0,0,0,0,0,0
1854,0,0,0,0,0,0,0,0,0,0,0
1855,0,0,0,0,0,0,0,0,0,0,0
1856,0,0,0,0,0,0,0,0,0,0,0
1857,0,0,0,0,0,0,0,0,0,0,0
1858,0,0,0,0,0,0,0,0,0,0,0
1859,0,0,0,0,0,0,0,0,0,0,0
1860,0,0,0,0,0,0,0,0,0,0,0
1861,0,0,0,0,0,0,0,0,0,0,0
1862,0,0,0,0,0,0,0,0,0,0,0
1863,0,0,0,0,0,0,0,0,0,0,1
1864,0,0,0,0,0,0,0,0,0,0,0
1865,0,0,0,0,0,0,0,0,0,0,0
1866,0,0,0,0,0,0,0,0,0,0,0
1867,0,0,0,0,0,0,0,0,0,0,0
1868,0,0,0,0,0,0,0,0,0,0,0
1869,0,0,0,0,0,0,0,0,0,0,0
1870,0,0,0,0,0,0,0,0,0,0,0
1871,0,0,0,0,0,0,0,0,0,0,1
1872,0,0,0,0,0,0,0,0,0,0,0
1873,0,0,0,0,0,0,0,0,0,0,0
1874,0,0,0,0,0,0,0,0,0,0,0
1875,0,0,0,0,0,0,0,0,0,0,0
1876,0,0,0,0,0,0,0,0,0,0,0
1877,0,0,0,0,0,0,0,0,0,0,0
1878,0,0,0,0,0,0,0,0,0,0,0
1879,0,0,0,0,0,0,0,0,0,0,0
1880,0,0,0,0,0,0,0,0,0,0,1
1881,0,0,0,0,0,0,0,0,0,0,0
1882,0,0,0,0,0,0,0,0,0,0,0
1883,0,0,0,0,0,0,0,0,0,0,0
1884,0,0,0,0,0,0,0,0,0,0,0
1885,0,0,0,0,0,0,0,0,0,0,0
1886,0,0,0,0,0,0,0,0,0,0,0
1887,0,0,0,0,0,0,0,0,0,0,0
1888,0,0,0,0,0,0,0,0,0,0,0
1889,0,0,0,0,0,0,0,0,0,0,0
1890,0,0,0,0,0,0,0,0,0,0,0
1891,0,0,0,0,0,0,0,0,0,0,0
1892,0,0,0,0,0,0,0,0,0,0,0
1893,0,0,0,0,0,0,0,0,0,0,0
1894,0,0,0,0,0,0,0,0,0,0,0
1895,0,0,0,0,0,0,0,0,0,0,0
1896,0,0,0,0,0,0,0,0,0,0,0
1897,0,0,0,0,0,0,0,0,0,0,0
1898,0,0,0,0,0,0,0,0,0,0,0
1899,0,0,0,0,0,0,0,0,0,0,0
1900,0,0,0,0,0,0,0,0,0,0,0
1901,0,0,0,0,0,0,0,0,0,0,0
1902,0,0,0,0,0,0,0,0,0,0,0
1903,0,0,0,0,0,0,0,0,0,67108832,32209114
1904,0,0,0,0,0,0,0,0,0,0,0
1905,0,0,0,0,0,0,0,0,0,0,0
1906,0,0,0,0,0,0,0,0,0,0,0
1907,0,0,0,0,0,0,0,0,0,0,0
1908,0,0,0,0,0,0,0,0,0,0,0
1909,0,0,0,0,0,0,0,0,0,0,0
1910,0,0,0,0,0,0,0,0,0,0,0
1911,0,0,0,0,0,0,0,0,0,0,0
1912,0,0,0,0,0,0,0,0,0,67108831,32209115
1913,0,0,0,0,0,0,0,0,0,0,0
1914,0,0,0,0,0,0,0,0,0,0,0
1915,0,0,0,0,0,0,0,0,0,0,0
1916,0,0,0,0,0,0,0,0,0,0,0
1917,0,0,0,0,0,0,0,0,0,0,0
1918,0,0,0,0,0,0,0,0,0,0,0
1919,0,0,0,0,0,0,0,0,0,0,0
1920,0,0,0,0,0,0,0,0,0,0,0
1921,0,0,0,0,0,0,0,0,0,0,0
1922,0,0,0,0,0,0,0,0,0,0,0
1923,0,0,0,0,0,0,0,0,0,0,0
1924,0,0,0,0,0,0,0,0,0,0,0
1925,0,0,0,0,0,0,0,0,0,67108832,32209115
1926,0,0,0,0,0,0,0,0,0,0,0
1927,0,0,0,0,0,0,0,0,0,0,0
1928,0,0,0,0,0,0,0,0,0,0,0
1929,0,0,0,0,0,0,0,0,0,0,0
1930,0,0,0,0,0,0,0,0,0,0,0
1931,0,0,0,0,0,0,0,0,0,0,0
1932,0,0,0,0,0,0,0,0,0,0,0
1933,0,0,0,0,0,0,0,0,0,0,0
1934,0,0,0,0,0,0,0,0,0,0,0
1935,0,0,0,0,0,0,0,0,0,0,0
1936,0,0,0,0,0,0,0,0,0,0,0
1937,0,0,0,0,0,0,0,0,0,0,0
1938,0,0,0,0,0,0,0,0,0,0,0
1939,0,0,0,0,0,0,0,0,0,0,0
1940,0,0,0,0,0,0,0,0,0,0,0
1941,0,0,0,0,0,0,67108832,0,0,0,0
1942,0,0,0,0,0,0,0,0,0,0,0
1943,0,0,0,0,0,0,0,0,0,0,0
1944,0,0,0,0,0,0,0,0,0,0,0
1945,0,0,0,0,0,0,0,0,0,0,0
1946,0,0,0,0,0,0,0,0,0,0,0
1947,0,0,0,0,0,0,0,0,0,0,0
1948,0,0,0,0,0,0,0,0,0,0,0
1949,0,0,0,0,0,0,0,0,0,0,0
1950,0,0,0,0,0,0,0,0,0,0,0
1951,0,0,0,0,0,0,0,0,0,0,0
1952,0,0,0,0,0,0,0,0,0,0,0
1953,0,0,0,0,0,0,0,0,0,0,0
1954,0,0,0,0,0,0,0,0,0,0,0
1955,0,0,0,0,0,0,0,0,0,0,0
1956,0,0,0,0,0,0,0,0,0,0,0
1957,0,0,0,0,0,0,0,0,0,0,0
1958,0,0,0,0,0,0,0,0,0,0,0
1959,0,0,0,0,0,0,0,0,0,0,0
1960,0,0,0,0,0,0,0,0,0,0,0
1961,0,0,0,0,0,0,0,0,0,0,0
1962,0,0,0,0,0,0,0,0,0,0,0
1963,0,0,0,0,0,0,0,0,0,0,0
1964,0,0,0,0,0,0,0,0,0,0,0
1965,0,0,0,0,0,0,0,0,0,0,0
1966,0,0,0,0,0,0,0,0,0,0,0
1967,0,0,0,0,0,0,0,0,0,0,0
1968,0,0,0,0,0,0,0,0,0,0,0
1969,0,0,0,0,0,0,0,0,0,0,0
1970,0,0,0,0,0,0,0,0,0,0,0
1971,0,0,0,0,0,0,0,0,0,0,0
1972,0,0,0,0,0,0,0,0,0,0,0
1973,0,0,0,0,0,0,0,0,0,0,1
1974,0,0,0,0,0,0,0,0,0,0,0
1975,0,0,0,0,0,0,134217664,0,0,0,0
1976,0,0,0,0,0,0,0,0,0,0,0
1977,0,0,0,0,0,0,0,0,0,0,0
1978,0,0,0,0,0,0,0,0,0,0,0
1979,0,0,0,0,0,0,0,0,0,0,0
1980,0,0,0,0,0,0,0,0,0,0,0
1981,0,0,0,0,0,0,67108832,0,0,67108832,32209113
1982,0,0,0,0,0,0,0,0,0,0,0
1983,0,0,0,0,0,0,0,0,0,0,0
1984,0,0,0,0,0,0,0,0,0,0,0
1985,0,0,0,0,0,0,0,0,0,0,0
1986,0,0,0,0,0,0,0,0,0,0,0
1987,0,0,0,0,0,0,0,0,0,0,0
1988,0,0,0,0,0,0,0,0,0,0,0
1989,0,0,0,0,0,0,0,0,0,0,0
1990,0,0,0,0,0,0,0,0,0,0,0
1991,0,0,0,0,0,0,0,0,0,0,0
1992,0,0,0,0,0,0,0,0,0,0,0
1993,0,0,0,0,0,0,0,0,0,0,0
1994,0,0,0,0,0,0,0,0,0,0,0
1995,0,0,0,0,0,0,0,0,0,0,0
1996,0,0,0,0,0,0,0,0,0,0,0
1997,0,0,0,0,0,0,0,0,0,0,0
1998,0,0,0,0,0,0,0,0,0,0,0
1999,0,0,0,0,0,0,0,0,0,0,0
2000,0,0,0,0,0,0,0,0,0,0,0
2001,0,0,0,0,0,0,0,0,0,0,0
2002,0,0,0,0,0,0,0,0,0,0,0
2003,0,0,0,0,0,0,0,0,0,0,0
2004,0,0,0,0,0,0,0,0,0,0,0
2005,0,0,0,0,0,0,0,0,0,0,0
2006,0,0,0,0,0,0,0,0,0,0,0
2007,0,0,0,0,0,0,0,0,0,0,0
2008,0,0,0,0,0,0,0,0,0,0,0
2009,0,0,0,0,0,0,0,0,0,0,0
2010,0,0,0,0,0,0,0,0,0,0,0
2011,0,0,0,0,0,0,0,0,0,0,0
2012,0,0,0,0,0,0,0,0,0,0,0
2013,0,0,0,0,0,0,0,0,0,0,0
2014,0,0,0,0,0,0,0,0,0,67108832,32209114
2015,0,0,0,0,0,0,0,0,0,0,0
2016,0,0,0,0,0,0,0,0,0,0,0
2017,0,0,0,0,0,0,0,0,0,0,0
2018,0,0,0,0,0,0,0,0,0,0,0
2019,0,0,0,0,0,0,0,0,0,0,0
2020,0,0,0,0,0,0,0,0,0,0,0
2021,0,0,0,0,0,0,0,0,0,0,0
2022,0,0,0,0,0,0,0,0,0,0,1
2023,0,0,0,0,0,0,0,0,0,0,1
2024,0,0,0,0,0,0,0,0,0,0,0
2025,0,0,0,0,0,0,0,0,0,0,0
2026,0,0,0,0,0,0,0,0,0,0,0
2027,0,0,0,0,0,0,0,0,0,0,0
2028,0,0,0,0,0,0,0,0,0,0,0
2029,0,0,0,0,0,0,67108832,0,0,0,0
2030,0,0,0,0,0,0,0,0,0,0,0
2031,0,0,0,0,0,0,0,0,0,0,0
2032,0,0,0,0,0,0,0,0,0,0,0
2033,0,0,0,0,0,0,0,0,0,0,0
2034,0,0,0,0,0,0,0,0,0,0,0
2035,0,0,0,0,0,0,0,0,0,0,0
2036,0,0,0,0,0,0,0,0,0,0,0
2037,0,0,0,0,0,0,0,0,0,0,0
2038,0,0,0,0,0,0,0,0,0,0,0
2039,0,0,0,0,0,0,0,0,0,0,32209113
2040,0,0,0,0,0,0,0,0,0,0,0
2041,0,0,0,0,0,0,0,0,0,0,0
2042,0,0,0,0,0,0,0,0,0,0,0
2043,0,0,0,0,0,0,0,0,0,0,0
2044,0,0,0,0,0,0,0,0,0,0,1
2045,0,0,0,0,0,0,0,0,0,0,0
2046,0,0,0,0,0,0,0,0,0,0,0
2047,0,0,0,0,0,0,0,0,0,0,0
